%YAML 1.1
%TAG !u! tag:unity3d.com,2011:
--- !u!74 &7400000
AnimationClip:
  m_ObjectHideFlags: 0
  m_PrefabParentObject: {fileID: 0}
  m_PrefabInternal: {fileID: 0}
  m_Name: BigBladeSpin
  serializedVersion: 6
  m_Legacy: 0
  m_Compressed: 0
  m_UseHighQualityCurve: 1
  m_RotationCurves:
  - curve:
      serializedVersion: 2
      m_Curve:
      - time: 0
        value: {x: -0, y: -.693050385, z: -0, w: .720889151}
        inSlope: {x: 2.20770502, y: -.698794067, z: 2.19863057, w: -.797016561}
        outSlope: {x: 2.20770502, y: -.698794067, z: 2.19863057, w: -.797016561}
        tangentMode: 0
      - time: .0166666675
        value: {x: .0367950872, y: -.704696953, z: .0366438441, w: .707605541}
        inSlope: {x: 2.15467501, y: -.601996779, z: 2.21583581, w: -.823663414}
        outSlope: {x: 2.15467501, y: -.601996779, z: 2.21583581, w: -.823663414}
        tangentMode: 0
      - time: .0333333351
        value: {x: .0718225092, y: -.713116944, z: .0738611966, w: .693433702}
        inSlope: {x: 2.05355716, y: -.41770038, z: 2.24584055, w: -.879528403}
        outSlope: {x: 2.05355716, y: -.41770038, z: 2.24584055, w: -.879528403}
        tangentMode: 0
      - time: .0500000045
        value: {x: .105246998, y: -.7186203, z: .111505203, w: .678287923}
        inSlope: {x: 1.96073806, y: -.251145929, z: 2.26918411, w: -.94207406}
        outSlope: {x: 1.96073806, y: -.251145929, z: 2.26918411, w: -.94207406}
        tangentMode: 0
      - time: .0666666701
        value: {x: .137180448, y: -.721488476, z: .149500668, w: .662031233}
        inSlope: {x: 1.87288857, y: -.100411184, z: 2.28986979, w: -1.01397169}
        outSlope: {x: 1.87288857, y: -.100411184, z: 2.28986979, w: -1.01397169}
        tangentMode: 0
      - time: .0833333358
        value: {x: .167676613, y: -.72196734, z: .187834188, w: .644488871}
        inSlope: {x: 1.78639019, y: .0368195809, z: 2.3113246, w: -1.0971452}
        outSlope: {x: 1.78639019, y: .0368195809, z: 2.3113246, w: -1.0971452}
        tangentMode: 0
      - time: .100000001
        value: {x: .196726784, y: -.720261157, z: .226544812, w: .625459731}
        inSlope: {x: 1.69737077, y: .163235679, z: 2.33641744, w: -1.19283926}
        outSlope: {x: 1.69737077, y: .163235679, z: 2.33641744, w: -1.19283926}
        tangentMode: 0
      - time: .116666667
        value: {x: .224255636, y: -.716526151, z: .265714765, w: .604727566}
        inSlope: {x: 1.60172057, y: .281892955, z: 2.36747408, w: -1.30166864}
        outSlope: {x: 1.60172057, y: .281892955, z: 2.36747408, w: -1.30166864}
        tangentMode: 0
      - time: .13333334
        value: {x: .250117481, y: -.710864723, z: .305460632, w: .582070768}
        inSlope: {x: 1.49510193, y: .396255195, z: 2.40624142, w: -1.42358947}
        outSlope: {x: 1.49510193, y: .396255195, z: 2.40624142, w: -1.42358947}
        tangentMode: 0
      - time: .150000006
        value: {x: .274092376, y: -.703317642, z: .345922828, w: .55727458}
        inSlope: {x: 1.37292278, y: .510220587, z: 2.45380831, w: -1.55787361}
        outSlope: {x: 1.37292278, y: .510220587, z: 2.45380831, w: -1.55787361}
        tangentMode: 0
      - time: .166666672
        value: {x: .295881569, y: -.693857372, z: .387254238, w: .530141652}
        inSlope: {x: 1.23033929, y: .628132284, z: 2.51051831, w: -1.70308304}
        outSlope: {x: 1.23033929, y: .628132284, z: 2.51051831, w: -1.70308304}
        tangentMode: 0
      - time: .183333337
        value: {x: .31510368, y: -.682379901, z: .429606766, w: .500505149}
        inSlope: {x: 1.06224155, y: .754764736, z: 2.57581306, w: -1.85694432}
        outSlope: {x: 1.06224155, y: .754764736, z: 2.57581306, w: -1.85694432}
        tangentMode: 0
      - time: .200000003
        value: {x: .331289619, y: -.668698549, z: .473114669, w: .46824351}
        inSlope: {x: .863283336, y: .895280302, z: 2.64804411, w: -2.0162034}
        outSlope: {x: .863283336, y: .895280302, z: 2.64804411, w: -2.0162034}
        tangentMode: 0
      - time: .216666669
        value: {x: .343879789, y: -.652537227, z: .517874897, w: .433298379}
        inSlope: {x: .627997279, y: 1.05518472, z: 2.72422886, w: -2.17640185}
        outSlope: {x: .627997279, y: 1.05518472, z: 2.72422886, w: -2.17640185}
        tangentMode: 0
      - time: .233333334
        value: {x: .35222286, y: -.633525729, z: .563922286, w: .395696789}
        inSlope: {x: .350872308, y: 1.24010336, z: 2.79976869, w: -2.33168745}
        outSlope: {x: .350872308, y: 1.24010336, z: 2.79976869, w: -2.33168745}
        tangentMode: 0
      - time: .25
        value: {x: .355575532, y: -.611200452, z: .611200511, w: .355575472}
        inSlope: {x: .0244358927, y: 1.39321923, z: 2.77826142, w: -2.40007925}
        outSlope: {x: .0244358927, y: 1.39321923, z: 2.77826142, w: -2.40007925}
        tangentMode: 0
      - time: .266666681
        value: {x: .353037387, y: -.587085068, z: .656531036, w: .315694124}
        inSlope: {x: -.320850044, y: 1.45137608, z: 2.59765291, w: -2.32207155}
        outSlope: {x: -.320850044, y: 1.45137608, z: 2.59765291, w: -2.32207155}
        tangentMode: 0
      - time: .283333361
        value: {x: .344880521, y: -.562821209, z: .697789013, w: .278173029}
        inSlope: {x: -.638545811, y: 1.48134708, z: 2.39256239, w: -2.20246792}
        outSlope: {x: -.638545811, y: 1.48134708, z: 2.39256239, w: -2.20246792}
        tangentMode: 0
      - time: .300000042
        value: {x: .331752509, y: -.537706792, z: .736283183, w: .242278472}
        inSlope: {x: -.928432465, y: 1.565588, z: 2.259727, w: -2.12469053}
        outSlope: {x: -.928432465, y: 1.565588, z: 2.259727, w: -2.12469053}
        tangentMode: 0
      - time: .316666722
        value: {x: .313932747, y: -.510634899, z: .77311331, w: .207349956}
        inSlope: {x: -1.21152163, y: 1.72683072, z: 2.18498468, w: -2.08123636}
        outSlope: {x: -1.21152163, y: 1.72683072, z: 2.18498468, w: -2.08123636}
        tangentMode: 0
      - time: .333333403
        value: {x: .291368425, y: -.480145723, z: .809116066, w: .172903866}
        inSlope: {x: -1.50689769, y: 1.98514771, z: 2.15019464, w: -2.05827856}
        outSlope: {x: -1.50689769, y: 1.98514771, z: 2.15019464, w: -2.05827856}
        tangentMode: 0
      - time: .350000083
        value: {x: .26370278, y: -.444463253, z: .844786525, w: .138740614}
        inSlope: {x: -1.83177423, y: 2.35839462, z: 2.13146043, w: -2.03509188}
        outSlope: {x: -1.83177423, y: 2.35839462, z: 2.13146043, w: -2.03509188}
        tangentMode: 0
      - time: .366666764
        value: {x: .230309233, y: -.401532501, z: .880164802, w: .105067417}
        inSlope: {x: -2.20056725, y: 2.86157656, z: 2.09671879, w: -1.98285699}
        outSlope: {x: -2.20056725, y: 2.86157656, z: 2.09671879, w: -1.98285699}
        tangentMode: 0
      - time: .383333445
        value: {x: .190350473, y: -.349077284, z: .914677203, w: .0726453215}
        inSlope: {x: -2.62252641, y: 3.5046401, z: 2.00294328, w: -1.86313462}
        outSlope: {x: -2.62252641, y: 3.5046401, z: 2.00294328, w: -1.86313462}
        tangentMode: 0
      - time: .400000125
        value: {x: .142891616, y: -.284711063, z: .946929634, w: .0429628752}
        inSlope: {x: -3.09727407, y: 4.28810883, z: 1.79358447, w: -1.62654805}
        outSlope: {x: -3.09727407, y: 4.28810883, z: 1.79358447, w: -1.62654805}
        tangentMode: 0
      - time: .416666806
        value: {x: .0871079192, y: -.206140205, z: .974463403, w: .0184270069}
        inSlope: {x: -3.60767651, y: 5.19581699, z: 1.39715254, w: -1.21266222}
        outSlope: {x: -3.60767651, y: 5.19581699, z: 1.39715254, w: -1.21266222}
        tangentMode: 0
      - time: .433333486
        value: {x: .0226356275, y: -.111517012, z: .993501425, w: .00254076882}
        inSlope: {x: -4.10965252, y: 6.18424511, z: .728753805, w: -.55280751}
        outSlope: {x: -4.10965252, y: 6.18424511, z: .728753805, w: -.55280751}
        tangentMode: 0
      - time: .450000167
        value: {x: -.0498806164, y: 1.47238768e-06, z: .998755217, w: 7.35351406e-08}
        inSlope: {x: -4.65604019, y: 7.43731594, z: -.357881486, w: .476394713}
        outSlope: {x: -4.65604019, y: 7.43731594, z: -.357881486, w: .476394713}
        tangentMode: 0
      - time: .466666847
        value: {x: -.132565841, y: .136393741, z: .981572032, w: .018420605}
        inSlope: {x: -5.09756184, y: 8.80185604, z: -2.12926626, w: 2.08524847}
        outSlope: {x: -5.09756184, y: 8.80185604, z: -2.12926626, w: 2.08524847}
        tangentMode: 0
      - time: .483333528
        value: {x: -.219799489, y: .29339692, z: .927779615, w: .0695084184}
        inSlope: {x: -4.85169268, y: 9.35369301, z: -4.57770443, w: 4.22054291}
        outSlope: {x: -4.85169268, y: 9.35369301, z: -4.57770443, w: 4.22054291}
        tangentMode: 0
      - time: .500000179
        value: {x: -.294288933, y: .448183507, z: .828981936, w: .159105331}
        inSlope: {x: -3.53146935, y: 8.49140739, z: -7.18072414, w: 6.39319706}
        outSlope: {x: -3.53146935, y: 8.49140739, z: -7.18072414, w: 6.39319706}
        tangentMode: 0
      - time: .51666683
        value: {x: -.337515026, y: .576443553, z: .688422382, w: .282614797}
        inSlope: {x: -1.25789917, y: 6.3290062, z: -9.23121548, w: 7.98126841}
        outSlope: {x: -1.25789917, y: 6.3290062, z: -9.23121548, w: 7.98126841}
        tangentMode: 0
      - time: .53333348
        value: {x: -.336218864, y: .659150183, z: .521275043, w: .425147355}
        inSlope: {x: 1.48777986, y: 3.3603425, z: -10.1495314, w: 8.50689125}
        outSlope: {x: 1.48777986, y: 3.3603425, z: -10.1495314, w: 8.50689125}
        tangentMode: 0
      - time: .550000131
        value: {x: -.287922412, y: .688454866, z: .350104988, w: .566177547}
        inSlope: {x: 4.01189613, y: .312450826, z: -9.71614075, w: 7.84998226}
        outSlope: {x: 4.01189613, y: .312450826, z: -9.71614075, w: 7.84998226}
        tangentMode: 0
      - time: .566666782
        value: {x: -.202489123, y: .669565201, z: .197404012, w: .686813176}
        inSlope: {x: 5.66747904, y: -2.1212914, z: -8.13908863, w: 6.29859829}
        outSlope: {x: 5.66747904, y: -2.1212914, z: -8.13908863, w: 6.29859829}
        tangentMode: 0
      - time: .583333433
        value: {x: -.099006623, y: .617745221, z: .0788022876, w: .776130617}
        inSlope: {x: 6.07469368, y: -3.51650453, z: -5.92213535, w: 4.40400887}
        outSlope: {x: 6.07469368, y: -3.51650453, z: -5.92213535, w: 4.40400887}
        tangentMode: 0
      - time: .600000083
        value: {x: 4.7037463e-07, y: .552348495, z: -3.11668146e-07, w: .833613336}
        inSlope: {x: 5.86706829, y: -4.0330019, z: -3.97625065, w: 2.76944423}
        outSlope: {x: 5.86706829, y: -4.0330019, z: -3.97625065, w: 2.76944423}
        tangentMode: 0
      - time: .616666734
        value: {x: .0965621248, y: .483311951, z: -.0537392795, w: .868445337}
        inSlope: {x: 6.08035755, y: -4.2725234, z: -2.81852674, w: 1.52169192}
        outSlope: {x: 6.08035755, y: -4.2725234, z: -2.81852674, w: 1.52169192}
        tangentMode: 0
      - time: .633333385
        value: {x: .202678859, y: .409931183, z: -.0939511135, w: .884336352}
        inSlope: {x: 6.43770123, y: -4.43026924, z: -1.94328427, w: .382184744}
        outSlope: {x: 6.43770123, y: -4.43026924, z: -1.94328427, w: .382184744}
        tangentMode: 0
      - time: .650000036
        value: {x: .311151952, y: .335636437, z: -.118515357, w: .881184816}
        inSlope: {x: 6.36737251, y: -4.37503052, z: -.998091817, w: -.689911366}
        outSlope: {x: 6.36737251, y: -4.37503052, z: -.998091817, w: -.689911366}
        tangentMode: 0
      - time: .666666687
        value: {x: .414924413, y: .264096975, z: -.127220809, w: .861339331}
        inSlope: {x: 5.90257215, y: -4.11462927, z: -.09101592, w: -1.55427551}
        outSlope: {x: 5.90257215, y: -4.11462927, z: -.09101592, w: -1.55427551}
        tangentMode: 0
      - time: .683333337
        value: {x: .507904172, y: .19848226, z: -.121549219, w: .829375684}
        inSlope: {x: 5.11709213, y: -3.69607592, z: .689946413, w: -2.09497523}
        outSlope: {x: 5.11709213, y: -3.69607592, z: .689946413, w: -2.09497523}
        tangentMode: 0
      - time: .699999988
        value: {x: .585493982, y: .140894562, z: -.104222618, w: .791506886}
        inSlope: {x: 4.10371923, y: -3.19223738, z: 1.28714597, w: -2.23760819}
        outSlope: {x: 4.10371923, y: -3.19223738, z: 1.28714597, w: -2.23760819}
        tangentMode: 0
      - time: .716666639
        value: {x: .644694686, y: .0920744538, z: -.0786443949, w: .754788816}
        inSlope: {x: 2.94785595, y: -2.68489885, z: 1.67503834, w: -1.95655358}
        outSlope: {x: 2.94785595, y: -2.68489885, z: 1.67503834, w: -1.95655358}
        tangentMode: 0
      - time: .73333329
        value: {x: .683755755, y: .051398024, z: -.0483880639, w: .726288497}
        inSlope: {x: 1.70227623, y: -2.24859905, z: 1.85354829, w: -1.27388239}
        outSlope: {x: 1.70227623, y: -2.24859905, z: 1.85354829, w: -1.27388239}
        tangentMode: 0
      - time: .74999994
        value: {x: .701437175, y: .0171212293, z: -.0168595072, w: .712326109}
        inSlope: {x: .367958277, y: -1.93800962, z: 1.83570099, w: -.255078316}
        outSlope: {x: .367958277, y: -1.93800962, z: 1.83570099, w: -.255078316}
        tangentMode: 0
      - time: .766666591
        value: {x: .69602102, y: -.013202236, z: .0128019145, w: .717785895}
        inSlope: {x: -1.11539412, y: -1.77919316, z: 1.63362885, w: .991170168}
        outSlope: {x: -1.11539412, y: -1.77919316, z: 1.63362885, w: .991170168}
        tangentMode: 0
      - time: .783333242
        value: {x: .664257407, y: -.0421851538, z: .0375947356, w: .745365083}
        inSlope: {x: -2.86564612, y: -1.7627809, z: 1.24760151, w: 2.30205464}
        outSlope: {x: -2.86564612, y: -1.7627809, z: 1.24760151, w: 2.30205464}
        tangentMode: 0
      - time: .799999893
        value: {x: .60049957, y: -.0719615445, z: .0543885902, w: .794520974}
        inSlope: {x: -5.03498554, y: -1.83640146, z: .663078666, w: 3.43394804}
        outSlope: {x: -5.03498554, y: -1.83640146, z: .663078666, w: 3.43394804}
        tangentMode: 0
      - time: .816666543
        value: {x: .496424705, y: -.10339848, z: .0596973374, w: .859829903}
        inSlope: {x: -7.97886848, y: -1.83943677, z: -.196002066, w: 4.11484718}
        outSlope: {x: -7.97886848, y: -1.83943677, z: -.196002066, w: 4.11484718}
        tangentMode: 0
      - time: .833333194
        value: {x: .334537536, y: -.133276045, z: .0478551947, w: .931682408}
        inSlope: {x: -11.7214041, y: -1.53161597, z: -1.29221642, w: 3.67074418}
        outSlope: {x: -11.7214041, y: -1.53161597, z: -1.29221642, w: 3.67074418}
        tangentMode: 0
      - time: .849999845
        value: {x: .105711609, y: -.154452294, z: .0166234989, w: .982187927}
        inSlope: {x: -15.3268976, y: -.782904446, z: -2.30412769, w: 1.17673087}
        outSlope: {x: -15.3268976, y: -.782904446, z: -2.30412769, w: 1.17673087}
        tangentMode: 0
      - time: .866666496
        value: {x: -.176358581, y: -.159372836, z: -.028948985, w: .970906734}
        inSlope: {x: -17.5360565, y: .361556351, z: -2.86987257, w: -3.58547139}
        outSlope: {x: -17.5360565, y: .361556351, z: -2.86987257, w: -3.58547139}
        tangentMode: 0
      - time: .883333147
        value: {x: -.478823066, y: -.142400429, z: -.0790388286, w: .862672329}
        inSlope: {x: -17.2427711, y: 1.67935514, z: -2.768188, w: -9.90758038}
        outSlope: {x: -17.2427711, y: 1.67935514, z: -2.768188, w: -9.90758038}
        tangentMode: 0
      - time: .899999797
        value: {x: -.751117051, y: -.103394389, z: -.121221825, w: .640654385}
        inSlope: {x: -13.7153721, y: 2.80200744, z: -1.96719301, w: -16.3655434}
        outSlope: {x: -13.7153721, y: 2.80200744, z: -1.96719301, w: -16.3655434}
        tangentMode: 0
      - time: .916666448
        value: {x: -.936001718, y: -.0490002707, z: -.144611865, w: .317154735}
        inSlope: {x: -7.08968067, y: 3.38358808, z: -.682220519, w: -21.1521988}
        outSlope: {x: -7.08968067, y: 3.38358808, z: -.682220519, w: -21.1521988}
        tangentMode: 0
      - time: .933333099
        value: {x: -.987439513, y: .00939177349, z: -.143962488, w: -.0644182265}
        inSlope: {x: 1.44701564, y: 3.2735343, z: .698872566, w: -22.7124977}
        outSlope: {x: 1.44701564, y: 3.2735343, z: .698872566, w: -22.7124977}
        tangentMode: 0
      - time: .94999975
        value: {x: -.887767911, y: .0601174384, z: -.121316135, w: -.439927757}
        inSlope: {x: 9.95898056, y: 2.58667183, z: 1.79309821, w: -20.3993149}
        outSlope: {x: 9.95898056, y: 2.58667183, z: 1.79309821, w: -20.3993149}
        tangentMode: 0
      - time: .9666664
        value: {x: -.655473828, y: .0956140831, z: -.0841926038, w: -.74439472}
        inSlope: {x: 16.4605827, y: 1.62554002, z: 2.39307046, w: -14.7880497}
        outSlope: {x: 16.4605827, y: 1.62554002, z: 2.39307046, w: -14.7880497}
        tangentMode: 0
      - time: .983333051
        value: {x: -.33908236, y: .114302054, z: -.0415471941, w: -.932862282}
        inSlope: {x: 19.6640511, y: .713412821, z: 2.52575827, w: -7.45354033}
        outSlope: {x: 19.6640511, y: .713412821, z: 2.52575827, w: -7.45354033}
        tangentMode: 0
      - time: 1
        value: {x: -0, y: .119394578, z: -0, w: -.992846906}
        inSlope: {x: 20.3445969, y: .305546254, z: 2.49278951, w: -3.59901643}
        outSlope: {x: 20.3445969, y: .305546254, z: 2.49278951, w: -3.59901643}
        tangentMode: 0
      m_PreInfinity: 2
      m_PostInfinity: 2
    path: 
  m_CompressedRotationCurves: []
  m_PositionCurves:
  - curve:
      serializedVersion: 2
      m_Curve:
      - time: 0
        value: {x: 2, y: 16.1000004, z: 72.9000015}
        inSlope: {x: -137.199997, y: 0, z: -3.20001221}
        outSlope: {x: -137.199997, y: 0, z: -3.20001221}
        tangentMode: 0
      - time: .25
        value: {x: -32.2999992, y: 16.1000004, z: 72.0999985}
        inSlope: {x: -183.850006, y: 0, z: -84.8500061}
        outSlope: {x: -183.850006, y: 0, z: -84.8500061}
        tangentMode: 0
      - time: .449999988
        value: {x: -78.4000015, y: 16.1000004, z: 38.7999992}
        inSlope: {x: 93.4166107, y: 0, z: -315.583252}
        outSlope: {x: 93.4166107, y: 0, z: -315.583252}
        tangentMode: 0
      - time: .600000024
        value: {x: -15.8000002, y: 16.1000004, z: -30.8999996}
        inSlope: {x: 340.851257, y: 0, z: -123.848633}
        outSlope: {x: 340.851257, y: 0, z: -123.848633}
        tangentMode: 0
      - time: .816666663
        value: {x: 41.4799995, y: 16.1000004, z: 16.1100006}
        inSlope: {x: 24.5119095, y: 0, z: 263.366455}
        outSlope: {x: 24.5119095, y: 0, z: 263.366455}
        tangentMode: 0
      - time: 1
        value: {x: 2, y: 16.1000004, z: 72.9000015}
        inSlope: {x: -215.345444, y: 0, z: 309.763641}
        outSlope: {x: -215.345444, y: 0, z: 309.763641}
        tangentMode: 0
      m_PreInfinity: 2
      m_PostInfinity: 2
    path: 
  m_ScaleCurves: []
  m_FloatCurves: []
  m_PPtrCurves: []
  m_SampleRate: 60
  m_WrapMode: 0
  m_Bounds:
    m_Center: {x: 0, y: 0, z: 0}
    m_Extent: {x: 0, y: 0, z: 0}
  m_ClipBindingConstant:
    genericBindings:
    - path: 0
      attribute: 1
      script: {fileID: 0}
      classID: 4
      customType: 0
      isPPtrCurve: 0
    - path: 0
      attribute: 2
      script: {fileID: 0}
      classID: 4
      customType: 0
      isPPtrCurve: 0
    pptrCurveMapping: []
  m_AnimationClipSettings:
    serializedVersion: 2
    m_StartTime: 0
    m_StopTime: 1
    m_OrientationOffsetY: 0
    m_Level: 0
    m_CycleOffset: 0
    m_LoopTime: 1
    m_LoopBlend: 0
    m_LoopBlendOrientation: 0
    m_LoopBlendPositionY: 0
    m_LoopBlendPositionXZ: 0
    m_KeepOriginalOrientation: 0
    m_KeepOriginalPositionY: 1
    m_KeepOriginalPositionXZ: 0
    m_HeightFromFeet: 0
    m_Mirror: 0
  m_EditorCurves:
  - curve:
      serializedVersion: 2
      m_Curve:
      - time: 0
        value: 2
        inSlope: -137.199997
        outSlope: -137.199997
        tangentMode: 10
      - time: .25
        value: -32.2999992
        inSlope: -183.850006
        outSlope: -183.850006
        tangentMode: 10
      - time: .449999988
        value: -78.4000015
        inSlope: 93.4166107
        outSlope: 93.4166107
        tangentMode: 10
      - time: .600000024
        value: -15.8000002
        inSlope: 340.851257
        outSlope: 340.851257
        tangentMode: 10
      - time: .816666663
        value: 41.4799995
        inSlope: 24.5119095
        outSlope: 24.5119095
        tangentMode: 10
      - time: 1
        value: 2
        inSlope: -215.345444
        outSlope: -215.345444
        tangentMode: 10
      m_PreInfinity: 2
      m_PostInfinity: 2
    attribute: m_LocalPosition.x
    path: 
    classID: 4
    script: {fileID: 0}
  - curve:
      serializedVersion: 2
      m_Curve:
      - time: 0
        value: 16.1000004
        inSlope: 0
        outSlope: 0
        tangentMode: 10
      - time: .25
        value: 16.1000004
        inSlope: 0
        outSlope: 0
        tangentMode: 10
      - time: .449999988
        value: 16.1000004
        inSlope: 0
        outSlope: 0
        tangentMode: 10
      - time: .600000024
        value: 16.1000004
        inSlope: 0
        outSlope: 0
        tangentMode: 10
      - time: .816666663
        value: 16.1000004
        inSlope: 0
        outSlope: 0
        tangentMode: 10
      - time: 1
        value: 16.1000004
        inSlope: 0
        outSlope: 0
        tangentMode: 10
      m_PreInfinity: 2
      m_PostInfinity: 2
    attribute: m_LocalPosition.y
    path: 
    classID: 4
    script: {fileID: 0}
  - curve:
      serializedVersion: 2
      m_Curve:
      - time: 0
        value: 72.9000015
        inSlope: -3.20001221
        outSlope: -3.20001221
        tangentMode: 10
      - time: .25
        value: 72.0999985
        inSlope: -84.8500061
        outSlope: -84.8500061
        tangentMode: 10
      - time: .449999988
        value: 38.7999992
        inSlope: -315.583252
        outSlope: -315.583252
        tangentMode: 10
      - time: .600000024
        value: -30.8999996
        inSlope: -123.848633
        outSlope: -123.848633
        tangentMode: 10
      - time: .816666663
        value: 16.1100006
        inSlope: 263.366455
        outSlope: 263.366455
        tangentMode: 10
      - time: 1
        value: 72.9000015
        inSlope: 309.763641
        outSlope: 309.763641
        tangentMode: 10
      m_PreInfinity: 2
      m_PostInfinity: 2
    attribute: m_LocalPosition.z
    path: 
    classID: 4
    script: {fileID: 0}
  - curve:
      serializedVersion: 2
      m_Curve:
      - time: 0
        value: -0
        inSlope: 2.20770502
        outSlope: 2.20770502
        tangentMode: 0
      - time: .0166666675
        value: .0367950872
        inSlope: 2.15467501
        outSlope: 2.15467501
        tangentMode: 0
      - time: .0333333351
        value: .0718225092
        inSlope: 2.05355716
        outSlope: 2.05355716
        tangentMode: 0
      - time: .0500000045
        value: .105246998
        inSlope: 1.96073806
        outSlope: 1.96073806
        tangentMode: 0
      - time: .0666666701
        value: .137180448
        inSlope: 1.87288857
        outSlope: 1.87288857
        tangentMode: 0
      - time: .0833333358
        value: .167676613
        inSlope: 1.78639019
        outSlope: 1.78639019
        tangentMode: 0
      - time: .100000001
        value: .196726784
        inSlope: 1.69737077
        outSlope: 1.69737077
        tangentMode: 0
      - time: .116666667
        value: .224255636
        inSlope: 1.60172057
        outSlope: 1.60172057
        tangentMode: 0
      - time: .13333334
        value: .250117481
        inSlope: 1.49510193
        outSlope: 1.49510193
        tangentMode: 0
      - time: .150000006
        value: .274092376
        inSlope: 1.37292278
        outSlope: 1.37292278
        tangentMode: 0
      - time: .166666672
        value: .295881569
        inSlope: 1.23033929
        outSlope: 1.23033929
        tangentMode: 0
      - time: .183333337
        value: .31510368
        inSlope: 1.06224155
        outSlope: 1.06224155
        tangentMode: 0
      - time: .200000003
        value: .331289619
        inSlope: .863283336
        outSlope: .863283336
        tangentMode: 0
      - time: .216666669
        value: .343879789
        inSlope: .627997279
        outSlope: .627997279
        tangentMode: 0
      - time: .233333334
        value: .35222286
        inSlope: .350872308
        outSlope: .350872308
        tangentMode: 0
      - time: .25
        value: .355575532
        inSlope: .0244358927
        outSlope: .0244358927
        tangentMode: 0
      - time: .266666681
        value: .353037387
        inSlope: -.320850044
        outSlope: -.320850044
        tangentMode: 0
      - time: .283333361
        value: .344880521
        inSlope: -.638545811
        outSlope: -.638545811
        tangentMode: 0
      - time: .300000042
        value: .331752509
        inSlope: -.928432465
        outSlope: -.928432465
        tangentMode: 0
      - time: .316666722
        value: .313932747
        inSlope: -1.21152163
        outSlope: -1.21152163
        tangentMode: 0
      - time: .333333403
        value: .291368425
        inSlope: -1.50689769
        outSlope: -1.50689769
        tangentMode: 0
      - time: .350000083
        value: .26370278
        inSlope: -1.83177423
        outSlope: -1.83177423
        tangentMode: 0
      - time: .366666764
        value: .230309233
        inSlope: -2.20056725
        outSlope: -2.20056725
        tangentMode: 0
      - time: .383333445
        value: .190350473
        inSlope: -2.62252641
        outSlope: -2.62252641
        tangentMode: 0
      - time: .400000125
        value: .142891616
        inSlope: -3.09727407
        outSlope: -3.09727407
        tangentMode: 0
      - time: .416666806
        value: .0871079192
        inSlope: -3.60767651
        outSlope: -3.60767651
        tangentMode: 0
      - time: .433333486
        value: .0226356275
        inSlope: -4.10965252
        outSlope: -4.10965252
        tangentMode: 0
      - time: .450000167
        value: -.0498806164
        inSlope: -4.65604019
        outSlope: -4.65604019
        tangentMode: 0
      - time: .466666847
        value: -.132565841
        inSlope: -5.09756184
        outSlope: -5.09756184
        tangentMode: 0
      - time: .483333528
        value: -.219799489
        inSlope: -4.85169268
        outSlope: -4.85169268
        tangentMode: 0
      - time: .500000179
        value: -.294288933
        inSlope: -3.53146935
        outSlope: -3.53146935
        tangentMode: 0
      - time: .51666683
        value: -.337515026
        inSlope: -1.25789917
        outSlope: -1.25789917
        tangentMode: 0
      - time: .53333348
        value: -.336218864
        inSlope: 1.48777986
        outSlope: 1.48777986
        tangentMode: 0
      - time: .550000131
        value: -.287922412
        inSlope: 4.01189613
        outSlope: 4.01189613
        tangentMode: 0
      - time: .566666782
        value: -.202489123
        inSlope: 5.66747904
        outSlope: 5.66747904
        tangentMode: 0
      - time: .583333433
        value: -.099006623
        inSlope: 6.07469368
        outSlope: 6.07469368
        tangentMode: 0
      - time: .600000083
        value: 4.7037463e-07
        inSlope: 5.86706829
        outSlope: 5.86706829
        tangentMode: 0
      - time: .616666734
        value: .0965621248
        inSlope: 6.08035755
        outSlope: 6.08035755
        tangentMode: 0
      - time: .633333385
        value: .202678859
        inSlope: 6.43770123
        outSlope: 6.43770123
        tangentMode: 0
      - time: .650000036
        value: .311151952
        inSlope: 6.36737251
        outSlope: 6.36737251
        tangentMode: 0
      - time: .666666687
        value: .414924413
        inSlope: 5.90257215
        outSlope: 5.90257215
        tangentMode: 0
      - time: .683333337
        value: .507904172
        inSlope: 5.11709213
        outSlope: 5.11709213
        tangentMode: 0
      - time: .699999988
        value: .585493982
        inSlope: 4.10371923
        outSlope: 4.10371923
        tangentMode: 0
      - time: .716666639
        value: .644694686
        inSlope: 2.94785595
        outSlope: 2.94785595
        tangentMode: 0
      - time: .73333329
        value: .683755755
        inSlope: 1.70227623
        outSlope: 1.70227623
        tangentMode: 0
      - time: .74999994
        value: .701437175
        inSlope: .367958277
        outSlope: .367958277
        tangentMode: 0
      - time: .766666591
        value: .69602102
        inSlope: -1.11539412
        outSlope: -1.11539412
        tangentMode: 0
      - time: .783333242
        value: .664257407
        inSlope: -2.86564612
        outSlope: -2.86564612
        tangentMode: 0
      - time: .799999893
        value: .60049957
        inSlope: -5.03498554
        outSlope: -5.03498554
        tangentMode: 0
      - time: .816666543
        value: .496424705
        inSlope: -7.97886848
        outSlope: -7.97886848
        tangentMode: 0
      - time: .833333194
        value: .334537536
        inSlope: -11.7214041
        outSlope: -11.7214041
        tangentMode: 0
      - time: .849999845
        value: .105711609
        inSlope: -15.3268976
        outSlope: -15.3268976
        tangentMode: 0
      - time: .866666496
        value: -.176358581
        inSlope: -17.5360565
        outSlope: -17.5360565
        tangentMode: 0
      - time: .883333147
        value: -.478823066
        inSlope: -17.2427711
        outSlope: -17.2427711
        tangentMode: 0
      - time: .899999797
        value: -.751117051
        inSlope: -13.7153721
        outSlope: -13.7153721
        tangentMode: 0
      - time: .916666448
        value: -.936001718
        inSlope: -7.08968067
        outSlope: -7.08968067
        tangentMode: 0
      - time: .933333099
        value: -.987439513
        inSlope: 1.44701564
        outSlope: 1.44701564
        tangentMode: 0
      - time: .94999975
        value: -.887767911
        inSlope: 9.95898056
        outSlope: 9.95898056
        tangentMode: 0
      - time: .9666664
        value: -.655473828
        inSlope: 16.4605827
        outSlope: 16.4605827
        tangentMode: 0
      - time: .983333051
        value: -.33908236
        inSlope: 19.6640511
        outSlope: 19.6640511
        tangentMode: 0
      - time: 1
        value: -0
        inSlope: 20.3445969
        outSlope: 20.3445969
        tangentMode: 0
      m_PreInfinity: 2
      m_PostInfinity: 2
    attribute: m_LocalRotation.x
    path: 
    classID: 4
    script: {fileID: 0}
  - curve:
      serializedVersion: 2
      m_Curve:
      - time: 0
        value: -.693050385
        inSlope: -.698794067
        outSlope: -.698794067
        tangentMode: 0
      - time: .0166666675
        value: -.704696953
        inSlope: -.601996779
        outSlope: -.601996779
        tangentMode: 0
      - time: .0333333351
        value: -.713116944
        inSlope: -.41770038
        outSlope: -.41770038
        tangentMode: 0
      - time: .0500000045
        value: -.7186203
        inSlope: -.251145929
        outSlope: -.251145929
        tangentMode: 0
      - time: .0666666701
        value: -.721488476
        inSlope: -.100411184
        outSlope: -.100411184
        tangentMode: 0
      - time: .0833333358
        value: -.72196734
        inSlope: .0368195809
        outSlope: .0368195809
        tangentMode: 0
      - time: .100000001
        value: -.720261157
        inSlope: .163235679
        outSlope: .163235679
        tangentMode: 0
      - time: .116666667
        value: -.716526151
        inSlope: .281892955
        outSlope: .281892955
        tangentMode: 0
      - time: .13333334
        value: -.710864723
        inSlope: .396255195
        outSlope: .396255195
        tangentMode: 0
      - time: .150000006
        value: -.703317642
        inSlope: .510220587
        outSlope: .510220587
        tangentMode: 0
      - time: .166666672
        value: -.693857372
        inSlope: .628132284
        outSlope: .628132284
        tangentMode: 0
      - time: .183333337
        value: -.682379901
        inSlope: .754764736
        outSlope: .754764736
        tangentMode: 0
      - time: .200000003
        value: -.668698549
        inSlope: .895280302
        outSlope: .895280302
        tangentMode: 0
      - time: .216666669
        value: -.652537227
        inSlope: 1.05518472
        outSlope: 1.05518472
        tangentMode: 0
      - time: .233333334
        value: -.633525729
        inSlope: 1.24010336
        outSlope: 1.24010336
        tangentMode: 0
      - time: .25
        value: -.611200452
        inSlope: 1.39321923
        outSlope: 1.39321923
        tangentMode: 0
      - time: .266666681
        value: -.587085068
        inSlope: 1.45137608
        outSlope: 1.45137608
        tangentMode: 0
      - time: .283333361
        value: -.562821209
        inSlope: 1.48134708
        outSlope: 1.48134708
        tangentMode: 0
      - time: .300000042
        value: -.537706792
        inSlope: 1.565588
        outSlope: 1.565588
        tangentMode: 0
      - time: .316666722
        value: -.510634899
        inSlope: 1.72683072
        outSlope: 1.72683072
        tangentMode: 0
      - time: .333333403
        value: -.480145723
        inSlope: 1.98514771
        outSlope: 1.98514771
        tangentMode: 0
      - time: .350000083
        value: -.444463253
        inSlope: 2.35839462
        outSlope: 2.35839462
        tangentMode: 0
      - time: .366666764
        value: -.401532501
        inSlope: 2.86157656
        outSlope: 2.86157656
        tangentMode: 0
      - time: .383333445
        value: -.349077284
        inSlope: 3.5046401
        outSlope: 3.5046401
        tangentMode: 0
      - time: .400000125
        value: -.284711063
        inSlope: 4.28810883
        outSlope: 4.28810883
        tangentMode: 0
      - time: .416666806
        value: -.206140205
        inSlope: 5.19581699
        outSlope: 5.19581699
        tangentMode: 0
      - time: .433333486
        value: -.111517012
        inSlope: 6.18424511
        outSlope: 6.18424511
        tangentMode: 0
      - time: .450000167
        value: 1.47238768e-06
        inSlope: 7.43731594
        outSlope: 7.43731594
        tangentMode: 0
      - time: .466666847
        value: .136393741
        inSlope: 8.80185604
        outSlope: 8.80185604
        tangentMode: 0
      - time: .483333528
        value: .29339692
        inSlope: 9.35369301
        outSlope: 9.35369301
        tangentMode: 0
      - time: .500000179
        value: .448183507
        inSlope: 8.49140739
        outSlope: 8.49140739
        tangentMode: 0
      - time: .51666683
        value: .576443553
        inSlope: 6.3290062
        outSlope: 6.3290062
        tangentMode: 0
      - time: .53333348
        value: .659150183
        inSlope: 3.3603425
        outSlope: 3.3603425
        tangentMode: 0
      - time: .550000131
        value: .688454866
        inSlope: .312450826
        outSlope: .312450826
        tangentMode: 0
      - time: .566666782
        value: .669565201
        inSlope: -2.1212914
        outSlope: -2.1212914
        tangentMode: 0
      - time: .583333433
        value: .617745221
        inSlope: -3.51650453
        outSlope: -3.51650453
        tangentMode: 0
      - time: .600000083
        value: .552348495
        inSlope: -4.0330019
        outSlope: -4.0330019
        tangentMode: 0
      - time: .616666734
        value: .483311951
        inSlope: -4.2725234
        outSlope: -4.2725234
        tangentMode: 0
      - time: .633333385
        value: .409931183
        inSlope: -4.43026924
        outSlope: -4.43026924
        tangentMode: 0
      - time: .650000036
        value: .335636437
        inSlope: -4.37503052
        outSlope: -4.37503052
        tangentMode: 0
      - time: .666666687
        value: .264096975
        inSlope: -4.11462927
        outSlope: -4.11462927
        tangentMode: 0
      - time: .683333337
        value: .19848226
        inSlope: -3.69607592
        outSlope: -3.69607592
        tangentMode: 0
      - time: .699999988
        value: .140894562
        inSlope: -3.19223738
        outSlope: -3.19223738
        tangentMode: 0
      - time: .716666639
        value: .0920744538
        inSlope: -2.68489885
        outSlope: -2.68489885
        tangentMode: 0
      - time: .73333329
        value: .051398024
        inSlope: -2.24859905
        outSlope: -2.24859905
        tangentMode: 0
      - time: .74999994
        value: .0171212293
        inSlope: -1.93800962
        outSlope: -1.93800962
        tangentMode: 0
      - time: .766666591
        value: -.013202236
        inSlope: -1.77919316
        outSlope: -1.77919316
        tangentMode: 0
      - time: .783333242
        value: -.0421851538
        inSlope: -1.7627809
        outSlope: -1.7627809
        tangentMode: 0
      - time: .799999893
        value: -.0719615445
        inSlope: -1.83640146
        outSlope: -1.83640146
        tangentMode: 0
      - time: .816666543
        value: -.10339848
        inSlope: -1.83943677
        outSlope: -1.83943677
        tangentMode: 0
      - time: .833333194
        value: -.133276045
        inSlope: -1.53161597
        outSlope: -1.53161597
        tangentMode: 0
      - time: .849999845
        value: -.154452294
        inSlope: -.782904446
        outSlope: -.782904446
        tangentMode: 0
      - time: .866666496
        value: -.159372836
        inSlope: .361556351
        outSlope: .361556351
        tangentMode: 0
      - time: .883333147
        value: -.142400429
        inSlope: 1.67935514
        outSlope: 1.67935514
        tangentMode: 0
      - time: .899999797
        value: -.103394389
        inSlope: 2.80200744
        outSlope: 2.80200744
        tangentMode: 0
      - time: .916666448
        value: -.0490002707
        inSlope: 3.38358808
        outSlope: 3.38358808
        tangentMode: 0
      - time: .933333099
        value: .00939177349
        inSlope: 3.2735343
        outSlope: 3.2735343
        tangentMode: 0
      - time: .94999975
        value: .0601174384
        inSlope: 2.58667183
        outSlope: 2.58667183
        tangentMode: 0
      - time: .9666664
        value: .0956140831
        inSlope: 1.62554002
        outSlope: 1.62554002
        tangentMode: 0
      - time: .983333051
        value: .114302054
        inSlope: .713412821
        outSlope: .713412821
        tangentMode: 0
      - time: 1
        value: .119394578
        inSlope: .305546254
        outSlope: .305546254
        tangentMode: 0
      m_PreInfinity: 2
      m_PostInfinity: 2
    attribute: m_LocalRotation.y
    path: 
    classID: 4
    script: {fileID: 0}
  - curve:
      serializedVersion: 2
      m_Curve:
      - time: 0
        value: -0
        inSlope: 2.19863057
        outSlope: 2.19863057
        tangentMode: 0
      - time: .0166666675
        value: .0366438441
        inSlope: 2.21583581
        outSlope: 2.21583581
        tangentMode: 0
      - time: .0333333351
        value: .0738611966
        inSlope: 2.24584055
        outSlope: 2.24584055
        tangentMode: 0
      - time: .0500000045
        value: .111505203
        inSlope: 2.26918411
        outSlope: 2.26918411
        tangentMode: 0
      - time: .0666666701
        value: .149500668
        inSlope: 2.28986979
        outSlope: 2.28986979
        tangentMode: 0
      - time: .0833333358
        value: .187834188
        inSlope: 2.3113246
        outSlope: 2.3113246
        tangentMode: 0
      - time: .100000001
        value: .226544812
        inSlope: 2.33641744
        outSlope: 2.33641744
        tangentMode: 0
      - time: .116666667
        value: .265714765
        inSlope: 2.36747408
        outSlope: 2.36747408
        tangentMode: 0
      - time: .13333334
        value: .305460632
        inSlope: 2.40624142
        outSlope: 2.40624142
        tangentMode: 0
      - time: .150000006
        value: .345922828
        inSlope: 2.45380831
        outSlope: 2.45380831
        tangentMode: 0
      - time: .166666672
        value: .387254238
        inSlope: 2.51051831
        outSlope: 2.51051831
        tangentMode: 0
      - time: .183333337
        value: .429606766
        inSlope: 2.57581306
        outSlope: 2.57581306
        tangentMode: 0
      - time: .200000003
        value: .473114669
        inSlope: 2.64804411
        outSlope: 2.64804411
        tangentMode: 0
      - time: .216666669
        value: .517874897
        inSlope: 2.72422886
        outSlope: 2.72422886
        tangentMode: 0
      - time: .233333334
        value: .563922286
        inSlope: 2.79976869
        outSlope: 2.79976869
        tangentMode: 0
      - time: .25
        value: .611200511
        inSlope: 2.77826142
        outSlope: 2.77826142
        tangentMode: 0
      - time: .266666681
        value: .656531036
        inSlope: 2.59765291
        outSlope: 2.59765291
        tangentMode: 0
      - time: .283333361
        value: .697789013
        inSlope: 2.39256239
        outSlope: 2.39256239
        tangentMode: 0
      - time: .300000042
        value: .736283183
        inSlope: 2.259727
        outSlope: 2.259727
        tangentMode: 0
      - time: .316666722
        value: .77311331
        inSlope: 2.18498468
        outSlope: 2.18498468
        tangentMode: 0
      - time: .333333403
        value: .809116066
        inSlope: 2.15019464
        outSlope: 2.15019464
        tangentMode: 0
      - time: .350000083
        value: .844786525
        inSlope: 2.13146043
        outSlope: 2.13146043
        tangentMode: 0
      - time: .366666764
        value: .880164802
        inSlope: 2.09671879
        outSlope: 2.09671879
        tangentMode: 0
      - time: .383333445
        value: .914677203
        inSlope: 2.00294328
        outSlope: 2.00294328
        tangentMode: 0
      - time: .400000125
        value: .946929634
        inSlope: 1.79358447
        outSlope: 1.79358447
        tangentMode: 0
      - time: .416666806
        value: .974463403
        inSlope: 1.39715254
        outSlope: 1.39715254
        tangentMode: 0
      - time: .433333486
        value: .993501425
        inSlope: .728753805
        outSlope: .728753805
        tangentMode: 0
      - time: .450000167
        value: .998755217
        inSlope: -.357881486
        outSlope: -.357881486
        tangentMode: 0
      - time: .466666847
        value: .981572032
        inSlope: -2.12926626
        outSlope: -2.12926626
        tangentMode: 0
      - time: .483333528
        value: .927779615
        inSlope: -4.57770443
        outSlope: -4.57770443
        tangentMode: 0
      - time: .500000179
        value: .828981936
        inSlope: -7.18072414
        outSlope: -7.18072414
        tangentMode: 0
      - time: .51666683
        value: .688422382
        inSlope: -9.23121548
        outSlope: -9.23121548
        tangentMode: 0
      - time: .53333348
        value: .521275043
        inSlope: -10.1495314
        outSlope: -10.1495314
        tangentMode: 0
      - time: .550000131
        value: .350104988
        inSlope: -9.71614075
        outSlope: -9.71614075
        tangentMode: 0
      - time: .566666782
        value: .197404012
        inSlope: -8.13908863
        outSlope: -8.13908863
        tangentMode: 0
      - time: .583333433
        value: .0788022876
        inSlope: -5.92213535
        outSlope: -5.92213535
        tangentMode: 0
      - time: .600000083
        value: -3.11668146e-07
        inSlope: -3.97625065
        outSlope: -3.97625065
        tangentMode: 0
      - time: .616666734
        value: -.0537392795
        inSlope: -2.81852674
        outSlope: -2.81852674
        tangentMode: 0
      - time: .633333385
        value: -.0939511135
        inSlope: -1.94328427
        outSlope: -1.94328427
        tangentMode: 0
      - time: .650000036
        value: -.118515357
        inSlope: -.998091817
        outSlope: -.998091817
        tangentMode: 0
      - time: .666666687
        value: -.127220809
        inSlope: -.09101592
        outSlope: -.09101592
        tangentMode: 0
      - time: .683333337
        value: -.121549219
        inSlope: .689946413
        outSlope: .689946413
        tangentMode: 0
      - time: .699999988
        value: -.104222618
        inSlope: 1.28714597
        outSlope: 1.28714597
        tangentMode: 0
      - time: .716666639
        value: -.0786443949
        inSlope: 1.67503834
        outSlope: 1.67503834
        tangentMode: 0
      - time: .73333329
        value: -.0483880639
        inSlope: 1.85354829
        outSlope: 1.85354829
        tangentMode: 0
      - time: .74999994
        value: -.0168595072
        inSlope: 1.83570099
        outSlope: 1.83570099
        tangentMode: 0
      - time: .766666591
        value: .0128019145
        inSlope: 1.63362885
        outSlope: 1.63362885
        tangentMode: 0
      - time: .783333242
        value: .0375947356
        inSlope: 1.24760151
        outSlope: 1.24760151
        tangentMode: 0
      - time: .799999893
        value: .0543885902
        inSlope: .663078666
        outSlope: .663078666
        tangentMode: 0
      - time: .816666543
        value: .0596973374
        inSlope: -.196002066
        outSlope: -.196002066
        tangentMode: 0
      - time: .833333194
        value: .0478551947
        inSlope: -1.29221642
        outSlope: -1.29221642
        tangentMode: 0
      - time: .849999845
        value: .0166234989
        inSlope: -2.30412769
        outSlope: -2.30412769
        tangentMode: 0
      - time: .866666496
        value: -.028948985
        inSlope: -2.86987257
        outSlope: -2.86987257
        tangentMode: 0
      - time: .883333147
        value: -.0790388286
        inSlope: -2.768188
        outSlope: -2.768188
        tangentMode: 0
      - time: .899999797
        value: -.121221825
        inSlope: -1.96719301
        outSlope: -1.96719301
        tangentMode: 0
      - time: .916666448
        value: -.144611865
        inSlope: -.682220519
        outSlope: -.682220519
        tangentMode: 0
      - time: .933333099
        value: -.143962488
        inSlope: .698872566
        outSlope: .698872566
        tangentMode: 0
      - time: .94999975
        value: -.121316135
        inSlope: 1.79309821
        outSlope: 1.79309821
        tangentMode: 0
      - time: .9666664
        value: -.0841926038
        inSlope: 2.39307046
        outSlope: 2.39307046
        tangentMode: 0
      - time: .983333051
        value: -.0415471941
        inSlope: 2.52575827
        outSlope: 2.52575827
        tangentMode: 0
      - time: 1
        value: -0
        inSlope: 2.49278951
        outSlope: 2.49278951
        tangentMode: 0
      m_PreInfinity: 2
      m_PostInfinity: 2
    attribute: m_LocalRotation.z
    path: 
    classID: 4
    script: {fileID: 0}
  - curve:
      serializedVersion: 2
      m_Curve:
      - time: 0
        value: .720889151
        inSlope: -.797016561
        outSlope: -.797016561
        tangentMode: 0
      - time: .0166666675
        value: .707605541
        inSlope: -.823663414
        outSlope: -.823663414
        tangentMode: 0
      - time: .0333333351
        value: .693433702
        inSlope: -.879528403
        outSlope: -.879528403
        tangentMode: 0
      - time: .0500000045
        value: .678287923
        inSlope: -.94207406
        outSlope: -.94207406
        tangentMode: 0
      - time: .0666666701
        value: .662031233
        inSlope: -1.01397169
        outSlope: -1.01397169
        tangentMode: 0
      - time: .0833333358
        value: .644488871
        inSlope: -1.0971452
        outSlope: -1.0971452
        tangentMode: 0
      - time: .100000001
        value: .625459731
        inSlope: -1.19283926
        outSlope: -1.19283926
        tangentMode: 0
      - time: .116666667
        value: .604727566
        inSlope: -1.30166864
        outSlope: -1.30166864
        tangentMode: 0
      - time: .13333334
        value: .582070768
        inSlope: -1.42358947
        outSlope: -1.42358947
        tangentMode: 0
      - time: .150000006
        value: .55727458
        inSlope: -1.55787361
        outSlope: -1.55787361
        tangentMode: 0
      - time: .166666672
        value: .530141652
        inSlope: -1.70308304
        outSlope: -1.70308304
        tangentMode: 0
      - time: .183333337
        value: .500505149
        inSlope: -1.85694432
        outSlope: -1.85694432
        tangentMode: 0
      - time: .200000003
        value: .46824351
        inSlope: -2.0162034
        outSlope: -2.0162034
        tangentMode: 0
      - time: .216666669
        value: .433298379
        inSlope: -2.17640185
        outSlope: -2.17640185
        tangentMode: 0
      - time: .233333334
        value: .395696789
        inSlope: -2.33168745
        outSlope: -2.33168745
        tangentMode: 0
      - time: .25
        value: .355575472
        inSlope: -2.40007925
        outSlope: -2.40007925
        tangentMode: 0
      - time: .266666681
        value: .315694124
        inSlope: -2.32207155
        outSlope: -2.32207155
        tangentMode: 0
      - time: .283333361
        value: .278173029
        inSlope: -2.20246792
        outSlope: -2.20246792
        tangentMode: 0
      - time: .300000042
        value: .242278472
        inSlope: -2.12469053
        outSlope: -2.12469053
        tangentMode: 0
      - time: .316666722
        value: .207349956
        inSlope: -2.08123636
        outSlope: -2.08123636
        tangentMode: 0
      - time: .333333403
        value: .172903866
        inSlope: -2.05827856
        outSlope: -2.05827856
        tangentMode: 0
      - time: .350000083
        value: .138740614
        inSlope: -2.03509188
        outSlope: -2.03509188
        tangentMode: 0
      - time: .366666764
        value: .105067417
        inSlope: -1.98285699
        outSlope: -1.98285699
        tangentMode: 0
      - time: .383333445
        value: .0726453215
        inSlope: -1.86313462
        outSlope: -1.86313462
        tangentMode: 0
      - time: .400000125
        value: .0429628752
        inSlope: -1.62654805
        outSlope: -1.62654805
        tangentMode: 0
      - time: .416666806
        value: .0184270069
        inSlope: -1.21266222
        outSlope: -1.21266222
        tangentMode: 0
      - time: .433333486
        value: .00254076882
        inSlope: -.55280751
        outSlope: -.55280751
        tangentMode: 0
      - time: .450000167
        value: 7.35351406e-08
        inSlope: .476394713
        outSlope: .476394713
        tangentMode: 0
      - time: .466666847
        value: .018420605
        inSlope: 2.08524847
        outSlope: 2.08524847
        tangentMode: 0
      - time: .483333528
        value: .0695084184
        inSlope: 4.22054291
        outSlope: 4.22054291
        tangentMode: 0
      - time: .500000179
        value: .159105331
        inSlope: 6.39319706
        outSlope: 6.39319706
        tangentMode: 0
      - time: .51666683
        value: .282614797
        inSlope: 7.98126841
        outSlope: 7.98126841
        tangentMode: 0
      - time: .53333348
        value: .425147355
        inSlope: 8.50689125
        outSlope: 8.50689125
        tangentMode: 0
      - time: .550000131
        value: .566177547
        inSlope: 7.84998226
        outSlope: 7.84998226
        tangentMode: 0
      - time: .566666782
        value: .686813176
        inSlope: 6.29859829
        outSlope: 6.29859829
        tangentMode: 0
      - time: .583333433
        value: .776130617
        inSlope: 4.40400887
        outSlope: 4.40400887
        tangentMode: 0
      - time: .600000083
        value: .833613336
        inSlope: 2.76944423
        outSlope: 2.76944423
        tangentMode: 0
      - time: .616666734
        value: .868445337
        inSlope: 1.52169192
        outSlope: 1.52169192
        tangentMode: 0
      - time: .633333385
        value: .884336352
        inSlope: .382184744
        outSlope: .382184744
        tangentMode: 0
      - time: .650000036
        value: .881184816
        inSlope: -.689911366
        outSlope: -.689911366
        tangentMode: 0
      - time: .666666687
        value: .861339331
        inSlope: -1.55427551
        outSlope: -1.55427551
        tangentMode: 0
      - time: .683333337
        value: .829375684
        inSlope: -2.09497523
        outSlope: -2.09497523
        tangentMode: 0
      - time: .699999988
        value: .791506886
        inSlope: -2.23760819
        outSlope: -2.23760819
        tangentMode: 0
      - time: .716666639
        value: .754788816
        inSlope: -1.95655358
        outSlope: -1.95655358
        tangentMode: 0
      - time: .73333329
        value: .726288497
        inSlope: -1.27388239
        outSlope: -1.27388239
        tangentMode: 0
      - time: .74999994
        value: .712326109
        inSlope: -.255078316
        outSlope: -.255078316
        tangentMode: 0
      - time: .766666591
        value: .717785895
        inSlope: .991170168
        outSlope: .991170168
        tangentMode: 0
      - time: .783333242
        value: .745365083
        inSlope: 2.30205464
        outSlope: 2.30205464
        tangentMode: 0
      - time: .799999893
        value: .794520974
        inSlope: 3.43394804
        outSlope: 3.43394804
        tangentMode: 0
      - time: .816666543
        value: .859829903
        inSlope: 4.11484718
        outSlope: 4.11484718
        tangentMode: 0
      - time: .833333194
        value: .931682408
        inSlope: 3.67074418
        outSlope: 3.67074418
        tangentMode: 0
      - time: .849999845
        value: .982187927
        inSlope: 1.17673087
        outSlope: 1.17673087
        tangentMode: 0
      - time: .866666496
        value: .970906734
        inSlope: -3.58547139
        outSlope: -3.58547139
        tangentMode: 0
      - time: .883333147
        value: .862672329
        inSlope: -9.90758038
        outSlope: -9.90758038
        tangentMode: 0
      - time: .899999797
        value: .640654385
        inSlope: -16.3655434
        outSlope: -16.3655434
        tangentMode: 0
      - time: .916666448
        value: .317154735
        inSlope: -21.1521988
        outSlope: -21.1521988
        tangentMode: 0
      - time: .933333099
        value: -.0644182265
        inSlope: -22.7124977
        outSlope: -22.7124977
        tangentMode: 0
      - time: .94999975
        value: -.439927757
        inSlope: -20.3993149
        outSlope: -20.3993149
        tangentMode: 0
      - time: .9666664
        value: -.74439472
        inSlope: -14.7880497
        outSlope: -14.7880497
        tangentMode: 0
      - time: .983333051
        value: -.932862282
        inSlope: -7.45354033
        outSlope: -7.45354033
        tangentMode: 0
      - time: 1
        value: -.992846906
        inSlope: -3.59901643
        outSlope: -3.59901643
        tangentMode: 0
      m_PreInfinity: 2
      m_PostInfinity: 2
    attribute: m_LocalRotation.w
    path: 
    classID: 4
    script: {fileID: 0}
  m_EulerEditorCurves:
  - curve:
      serializedVersion: 2
      m_Curve:
      - time: 0
        value: 0
        inSlope: 360
        outSlope: 360
        tangentMode: 10
      - time: .25
        value: 90
        inSlope: 405
        outSlope: 405
        tangentMode: 10
      - time: .449999988
        value: 180
        inSlope: 824.999878
        outSlope: 824.999878
        tangentMode: 10
      - time: .600000024
        value: 360
        inSlope: 738.461426
        outSlope: 738.461426
        tangentMode: 10
      - time: .816666663
        value: 420
        inSlope: -1006.99292
        outSlope: -1006.99292
        tangentMode: 10
      - time: 1
        value: 0
        inSlope: -2290.90894
        outSlope: -2290.90894
        tangentMode: 10
      m_PreInfinity: 2
      m_PostInfinity: 2
    attribute: localEulerAnglesBaked.x
    path: 
    classID: 4
    script: {fileID: 0}
  - curve:
      serializedVersion: 2
      m_Curve:
      - time: 0
        value: 272.255859
        inSlope: -127.508545
        outSlope: -127.508545
        tangentMode: 10
      - time: .25
        value: 240.378723
        inSlope: -228.996597
        outSlope: -228.996597
        tangentMode: 10
      - time: .449999988
        value: 174.281799
        inSlope: -522.659668
        outSlope: -522.659668
        tangentMode: 10
      - time: .600000024
        value: 67.0565796
        inSlope: -543.811768
        outSlope: -543.811768
        tangentMode: 10
      - time: .816666663
        value: -13.714325
        inSlope: -186.394424
        outSlope: -186.394424
        tangentMode: 10
      - time: 1
        value: -13.714325
        inSlope: 0
        outSlope: 0
        tangentMode: 10
      m_PreInfinity: 2
      m_PostInfinity: 2
    attribute: localEulerAnglesBaked.y
    path: 
    classID: 4
    script: {fileID: 0}
  - curve:
      serializedVersion: 2
      m_Curve:
      - time: 0
        value: 0
        inSlope: 0
        outSlope: 0
        tangentMode: 10
      - time: .25
        value: 0
        inSlope: 0
        outSlope: 0
        tangentMode: 10
      - time: .449999988
        value: 0
        inSlope: 0
        outSlope: 0
        tangentMode: 10
      - time: .600000024
        value: 0
        inSlope: 0
        outSlope: 0
        tangentMode: 10
      - time: .816666663
        value: 0
        inSlope: 0
        outSlope: 0
        tangentMode: 10
      - time: 1
        value: 0
        inSlope: 0
        outSlope: 0
        tangentMode: 10
      m_PreInfinity: 2
      m_PostInfinity: 2
    attribute: localEulerAnglesBaked.z
    path: 
    classID: 4
    script: {fileID: 0}
  m_HasGenericRootTransform: 1
  m_HasMotionFloatCurves: 0
  m_GenerateMotionCurves: 0
  m_Events: []
