%YAML 1.1
%TAG !u! tag:unity3d.com,2011:
--- !u!74 &7400000
AnimationClip:
  m_ObjectHideFlags: 0
  m_PrefabParentObject: {fileID: 0}
  m_PrefabInternal: {fileID: 0}
  m_Name: bladeSpin
  serializedVersion: 6
  m_Legacy: 0
  m_Compressed: 0
  m_UseHighQualityCurve: 1
  m_RotationCurves:
  - curve:
      serializedVersion: 2
      m_Curve:
      - time: 0
        value: {x: -0, y: -0, z: -0, w: -1}
        inSlope: {x: -.523359597, y: 0, z: 0, w: .013704896}
        outSlope: {x: -.523359597, y: 0, z: 0, w: .013704896}
        tangentMode: 0
      - time: .100000001
        value: {x: -.0523359627, y: -0, z: -0, w: -.99862951}
        inSlope: {x: -.522642374, y: 0, z: 0, w: .0273904204}
        outSlope: {x: -.522642374, y: 0, z: 0, w: .0273904204}
        tangentMode: 0
      - time: .200000003
        value: {x: -.104528472, y: -0, z: -0, w: -.994521916}
        inSlope: {x: -.520492613, y: 0, z: 0, w: .0547057353}
        outSlope: {x: -.520492613, y: 0, z: 0, w: .0547057353}
        tangentMode: 0
      - time: .300000012
        value: {x: -.156434491, y: -0, z: -0, w: -.987688363}
        inSlope: {x: -.516916215, y: 0, z: 0, w: .0818714499}
        outSlope: {x: -.516916215, y: 0, z: 0, w: .0818714499}
        tangentMode: 0
      - time: .400000006
        value: {x: -.207911715, y: -0, z: -0, w: -.978147626}
        inSlope: {x: -.511922956, y: 0, z: 0, w: .108812757}
        outSlope: {x: -.511922956, y: 0, z: 0, w: .108812757}
        tangentMode: 0
      - time: .5
        value: {x: -.258819073, y: -0, z: -0, w: -.965925813}
        inSlope: {x: -.505526543, y: 0, z: 0, w: .135455713}
        outSlope: {x: -.505526543, y: 0, z: 0, w: .135455713}
        tangentMode: 0
      - time: .600000024
        value: {x: -.309017032, y: -0, z: -0, w: -.95105648}
        inSlope: {x: -.49774456, y: 0, z: 0, w: .161727041}
        outSlope: {x: -.49774456, y: 0, z: 0, w: .161727041}
        tangentMode: 0
      - time: .700000048
        value: {x: -.358368009, y: -0, z: -0, w: -.933580399}
        inSlope: {x: -.488598228, y: 0, z: 0, w: .187555209}
        outSlope: {x: -.488598228, y: 0, z: 0, w: .187555209}
        tangentMode: 0
      - time: .800000072
        value: {x: -.406736702, y: -0, z: -0, w: -.91354543}
        inSlope: {x: -.478112727, y: 0, z: 0, w: .212869585}
        outSlope: {x: -.478112727, y: 0, z: 0, w: .212869585}
        tangentMode: 0
      - time: .900000095
        value: {x: -.453990579, y: -0, z: -0, w: -.89100647}
        inSlope: {x: -.466316968, y: 0, z: 0, w: .237600446}
        outSlope: {x: -.466316968, y: 0, z: 0, w: .237600446}
        tangentMode: 0
      - time: 1.00000012
        value: {x: -.500000119, y: -0, z: -0, w: -.866025329}
        inSlope: {x: -.453242838, y: 0, z: 0, w: .261679828}
        outSlope: {x: -.453242838, y: 0, z: 0, w: .261679828}
        tangentMode: 0
      - time: 1.10000014
        value: {x: -.54463917, y: -0, z: -0, w: -.838670492}
        inSlope: {x: -.438926101, y: 0, z: 0, w: .285041869}
        outSlope: {x: -.438926101, y: 0, z: 0, w: .285041869}
        tangentMode: 0
      - time: 1.20000017
        value: {x: -.587785363, y: -0, z: -0, w: -.809016943}
        inSlope: {x: -.423406869, y: 0, z: 0, w: .307623088}
        outSlope: {x: -.423406869, y: 0, z: 0, w: .307623088}
        tangentMode: 0
      - time: 1.30000019
        value: {x: -.629320562, y: -0, z: -0, w: -.777145863}
        inSlope: {x: -.406726807, y: 0, z: 0, w: .329361171}
        outSlope: {x: -.406726807, y: 0, z: 0, w: .329361171}
        tangentMode: 0
      - time: 1.40000021
        value: {x: -.669130743, y: -0, z: -0, w: -.743144691}
        inSlope: {x: -.388931841, y: 0, z: 0, w: .350195974}
        outSlope: {x: -.388931841, y: 0, z: 0, w: .350195974}
        tangentMode: 0
      - time: 1.50000024
        value: {x: -.707106948, y: -0, z: -0, w: -.70710665}
        inSlope: {x: -.370071143, y: 0, z: 0, w: .370071143}
        outSlope: {x: -.370071143, y: 0, z: 0, w: .370071143}
        tangentMode: 0
      - time: 1.60000026
        value: {x: -.743144989, y: -0, z: -0, w: -.669130445}
        inSlope: {x: -.350195676, y: 0, z: 0, w: .388932139}
        outSlope: {x: -.350195676, y: 0, z: 0, w: .388932139}
        tangentMode: 0
      - time: 1.70000029
        value: {x: -.777146101, y: -0, z: -0, w: -.629320204}
        inSlope: {x: -.329360574, y: 0, z: 0, w: .406726807}
        outSlope: {x: -.329360574, y: 0, z: 0, w: .406726807}
        tangentMode: 0
      - time: 1.80000031
        value: {x: -.809017122, y: -0, z: -0, w: -.587785065}
        inSlope: {x: -.307623088, y: 0, z: 0, w: .423407167}
        outSlope: {x: -.307623088, y: 0, z: 0, w: .423407167}
        tangentMode: 0
      - time: 1.90000033
        value: {x: -.838670731, y: -0, z: -0, w: -.544638753}
        inSlope: {x: -.285042346, y: 0, z: 0, w: .438926697}
        outSlope: {x: -.285042346, y: 0, z: 0, w: .438926697}
        tangentMode: 0
      - time: 2.00000024
        value: {x: -.866025567, y: -0, z: -0, w: -.499999762}
        inSlope: {x: -.261679828, y: 0, z: 0, w: .45324266}
        outSlope: {x: -.261679828, y: 0, z: 0, w: .45324266}
        tangentMode: 0
      - time: 2.10000014
        value: {x: -.891006649, y: -0, z: -0, w: -.45399031}
        inSlope: {x: -.237600133, y: 0, z: 0, w: .466316789}
        outSlope: {x: -.237600133, y: 0, z: 0, w: .466316789}
        tangentMode: 0
      - time: 2.20000005
        value: {x: -.913545549, y: -0, z: -0, w: -.406736493}
        inSlope: {x: -.212869257, y: 0, z: 0, w: .478112698}
        outSlope: {x: -.212869257, y: 0, z: 0, w: .478112698}
        tangentMode: 0
      - time: 2.29999995
        value: {x: -.933580458, y: -0, z: -0, w: -.35836786}
        inSlope: {x: -.187555134, y: 0, z: 0, w: .488598049}
        outSlope: {x: -.187555134, y: 0, z: 0, w: .488598049}
        tangentMode: 0
      - time: 2.39999986
        value: {x: -.95105654, y: -0, z: -0, w: -.309016973}
        inSlope: {x: -.161726922, y: 0, z: 0, w: .497744411}
        outSlope: {x: -.161726922, y: 0, z: 0, w: .497744411}
        tangentMode: 0
      - time: 2.49999976
        value: {x: -.965925813, y: -0, z: -0, w: -.258819073}
        inSlope: {x: -.135455564, y: 0, z: 0, w: .505527079}
        outSlope: {x: -.135455564, y: 0, z: 0, w: .505527079}
        tangentMode: 0
      - time: 2.59999967
        value: {x: -.978147626, y: -0, z: -0, w: -.207911655}
        inSlope: {x: -.108812556, y: 0, z: 0, w: .511922896}
        outSlope: {x: -.108812556, y: 0, z: 0, w: .511922896}
        tangentMode: 0
      - time: 2.69999957
        value: {x: -.987688303, y: -0, z: -0, w: -.156434596}
        inSlope: {x: -.0818715245, y: 0, z: 0, w: .516916096}
        outSlope: {x: -.0818715245, y: 0, z: 0, w: .516916096}
        tangentMode: 0
      - time: 2.79999948
        value: {x: -.994521916, y: -0, z: -0, w: -.104528539}
        inSlope: {x: -.0547060892, y: 0, z: 0, w: .520493031}
        outSlope: {x: -.0547060892, y: 0, z: 0, w: .520493031}
        tangentMode: 0
      - time: 2.89999938
        value: {x: -.99862951, y: -0, z: -0, w: -.052336093}
        inSlope: {x: -.0273904465, y: 0, z: 0, w: .522642255}
        outSlope: {x: -.0273904465, y: 0, z: 0, w: .522642255}
        tangentMode: 0
      - time: 2.99999928
        value: {x: -1, y: -0, z: -0, w: -1.94707184e-07}
        inSlope: {x: -2.98023224e-07, y: 0, z: 0, w: .523359478}
        outSlope: {x: -2.98023224e-07, y: 0, z: 0, w: .523359478}
        tangentMode: 0
      - time: 3.09999919
        value: {x: -.99862957, y: -0, z: -0, w: .0523357019}
        inSlope: {x: .0273904465, y: 0, z: 0, w: .522642255}
        outSlope: {x: .0273904465, y: 0, z: 0, w: .522642255}
        tangentMode: 0
      - time: 3.19999909
        value: {x: -.994521916, y: -0, z: -0, w: .104528151}
        inSlope: {x: .0547057912, y: 0, z: 0, w: .520492494}
        outSlope: {x: .0547057912, y: 0, z: 0, w: .520492494}
        tangentMode: 0
      - time: 3.299999
        value: {x: -.987688422, y: -0, z: -0, w: .156434104}
        inSlope: {x: .0818712264, y: 0, z: 0, w: .516916633}
        outSlope: {x: .0818712264, y: 0, z: 0, w: .516916633}
        tangentMode: 0
      - time: 3.3999989
        value: {x: -.978147686, y: -0, z: -0, w: .207911387}
        inSlope: {x: .108812556, y: 0, z: 0, w: .511922836}
        outSlope: {x: .108812556, y: 0, z: 0, w: .511922836}
        tangentMode: 0
      - time: 3.49999881
        value: {x: -.965925932, y: -0, z: -0, w: .258818567}
        inSlope: {x: .135455266, y: 0, z: 0, w: .505526483}
        outSlope: {x: .135455266, y: 0, z: 0, w: .505526483}
        tangentMode: 0
      - time: 3.59999871
        value: {x: -.951056659, y: -0, z: -0, w: .309016585}
        inSlope: {x: .161726922, y: 0, z: 0, w: .497745156}
        outSlope: {x: .161726922, y: 0, z: 0, w: .497745156}
        tangentMode: 0
      - time: 3.69999862
        value: {x: -.933580577, y: -0, z: -0, w: .358367503}
        inSlope: {x: .187554836, y: 0, z: 0, w: .488597751}
        outSlope: {x: .187554836, y: 0, z: 0, w: .488597751}
        tangentMode: 0
      - time: 3.79999852
        value: {x: -.913545728, y: -0, z: -0, w: .406736046}
        inSlope: {x: .212869257, y: 0, z: 0, w: .478112698}
        outSlope: {x: .212869257, y: 0, z: 0, w: .478112698}
        tangentMode: 0
      - time: 3.89999843
        value: {x: -.891006768, y: -0, z: -0, w: .453989953}
        inSlope: {x: .237600133, y: 0, z: 0, w: .466317385}
        outSlope: {x: .237600133, y: 0, z: 0, w: .466317385}
        tangentMode: 0
      - time: 3.99999833
        value: {x: -.866025746, y: -0, z: -0, w: .499999434}
        inSlope: {x: .26167953, y: 0, z: 0, w: .453243315}
        outSlope: {x: .26167953, y: 0, z: 0, w: .453243315}
        tangentMode: 0
      - time: 4.09999847
        value: {x: -.83867085, y: -0, z: -0, w: .544638634}
        inSlope: {x: .285042167, y: 0, z: 0, w: .438926876}
        outSlope: {x: .285042167, y: 0, z: 0, w: .438926876}
        tangentMode: 0
      - time: 4.19999838
        value: {x: -.809017301, y: -0, z: -0, w: .587784827}
        inSlope: {x: .30762285, y: 0, z: 0, w: .42340678}
        outSlope: {x: .30762285, y: 0, z: 0, w: .42340678}
        tangentMode: 0
      - time: 4.29999828
        value: {x: -.777146339, y: -0, z: -0, w: .629319906}
        inSlope: {x: .32935977, y: 0, z: 0, w: .406726092}
        outSlope: {x: .32935977, y: 0, z: 0, w: .406726092}
        tangentMode: 0
      - time: 4.39999819
        value: {x: -.743145406, y: -0, z: -0, w: .669129968}
        inSlope: {x: .350194931, y: 0, z: 0, w: .388931394}
        outSlope: {x: .350194931, y: 0, z: 0, w: .388931394}
        tangentMode: 0
      - time: 4.49999809
        value: {x: -.707107425, y: -0, z: -0, w: .707106113}
        inSlope: {x: .37007159, y: 0, z: 0, w: .370072186}
        outSlope: {x: .37007159, y: 0, z: 0, w: .370072186}
        tangentMode: 0
      - time: 4.599998
        value: {x: -.66913116, y: -0, z: -0, w: .743144333}
        inSlope: {x: .388932288, y: 0, z: 0, w: .350197017}
        outSlope: {x: .388932288, y: 0, z: 0, w: .350197017}
        tangentMode: 0
      - time: 4.6999979
        value: {x: -.629321039, y: -0, z: -0, w: .777145445}
        inSlope: {x: .40672639, y: 0, z: 0, w: .329360962}
        outSlope: {x: .40672639, y: 0, z: 0, w: .329360962}
        tangentMode: 0
      - time: 4.79999781
        value: {x: -.587785959, y: -0, z: -0, w: .809016466}
        inSlope: {x: .423407376, y: 0, z: 0, w: .307624042}
        outSlope: {x: .423407376, y: 0, z: 0, w: .307624042}
        tangentMode: 0
      - time: 4.89999771
        value: {x: -.544639647, y: -0, z: -0, w: .838670194}
        inSlope: {x: .438925743, y: 0, z: 0, w: .285042495}
        outSlope: {x: .438925743, y: 0, z: 0, w: .285042495}
        tangentMode: 0
      - time: 4.99999762
        value: {x: -.500000894, y: -0, z: -0, w: .866024911}
        inSlope: {x: .453241467, y: 0, z: 0, w: .26167953}
        outSlope: {x: .453241467, y: 0, z: 0, w: .26167953}
        tangentMode: 0
      - time: 5.09999752
        value: {x: -.453991443, y: -0, z: -0, w: .891006052}
        inSlope: {x: .46631664, y: 0, z: 0, w: .237600729}
        outSlope: {x: .46631664, y: 0, z: 0, w: .237600729}
        tangentMode: 0
      - time: 5.19999743
        value: {x: -.406737655, y: -0, z: -0, w: .913545012}
        inSlope: {x: .4781124, y: 0, z: 0, w: .212869853}
        outSlope: {x: .4781124, y: 0, z: 0, w: .212869853}
        tangentMode: 0
      - time: 5.29999733
        value: {x: -.358369052, y: -0, z: -0, w: .933579981}
        inSlope: {x: .488599122, y: 0, z: 0, w: .187556028}
        outSlope: {x: .488599122, y: 0, z: 0, w: .187556028}
        tangentMode: 0
      - time: 5.39999723
        value: {x: -.309017926, y: -0, z: -0, w: .951056182}
        inSlope: {x: .497744262, y: 0, z: 0, w: .161727816}
        outSlope: {x: .497744262, y: 0, z: 0, w: .161727816}
        tangentMode: 0
      - time: 5.49999714
        value: {x: -.258820295, y: -0, z: -0, w: .965925515}
        inSlope: {x: .505525053, y: 0, z: 0, w: .135455862}
        outSlope: {x: .505525053, y: 0, z: 0, w: .135455862}
        tangentMode: 0
      - time: 5.59999704
        value: {x: -.207913011, y: -0, z: -0, w: .978147328}
        inSlope: {x: .511922657, y: 0, z: 0, w: .108813152}
        outSlope: {x: .511922657, y: 0, z: 0, w: .108813152}
        tangentMode: 0
      - time: 5.69999695
        value: {x: -.156435862, y: -0, z: -0, w: .987688124}
        inSlope: {x: .516917109, y: 0, z: 0, w: .0818724185}
        outSlope: {x: .516917109, y: 0, z: 0, w: .0818724185}
        tangentMode: 0
      - time: 5.79999685
        value: {x: -.104529686, y: -0, z: -0, w: .994521797}
        inSlope: {x: .520493627, y: 0, z: 0, w: .0547066852}
        outSlope: {x: .520493627, y: 0, z: 0, w: .0547066852}
        tangentMode: 0
      - time: 5.89999676
        value: {x: -.0523372404, y: -0, z: -0, w: .998629451}
        inSlope: {x: .522641838, y: 0, z: 0, w: .0273908153}
        outSlope: {x: .522641838, y: 0, z: 0, w: .0273908153}
        tangentMode: 0
      - time: 6
        value: {x: 3.2584137e-07, y: -0, z: -0, w: 1}
        inSlope: {x: .523358703, y: 0, z: 0, w: .0137050478}
        outSlope: {x: .523358703, y: 0, z: 0, w: .0137050478}
        tangentMode: 0
      m_PreInfinity: 2
      m_PostInfinity: 2
    path: 
  m_CompressedRotationCurves: []
  m_PositionCurves:
  - curve:
      serializedVersion: 2
      m_Curve:
      - time: 0
        value: {x: 1.70521688, y: -1.15937567, z: .865882039}
        inSlope: {x: 0, y: 0, z: 0}
        outSlope: {x: 0, y: 0, z: 0}
        tangentMode: 0
      - time: 6
        value: {x: 1.70521688, y: -1.15937567, z: .865882039}
        inSlope: {x: 0, y: 0, z: 0}
        outSlope: {x: 0, y: 0, z: 0}
        tangentMode: 0
      m_PreInfinity: 2
      m_PostInfinity: 2
    path: 
  m_ScaleCurves: []
  m_FloatCurves: []
  m_PPtrCurves: []
  m_SampleRate: 10
  m_WrapMode: 0
  m_Bounds:
    m_Center: {x: 0, y: 0, z: 0}
    m_Extent: {x: 0, y: 0, z: 0}
  m_ClipBindingConstant:
    genericBindings:
    - path: 0
      attribute: 2
      script: {fileID: 0}
      classID: 4
      customType: 0
      isPPtrCurve: 0
    - path: 0
      attribute: 1
      script: {fileID: 0}
      classID: 4
      customType: 0
      isPPtrCurve: 0
    pptrCurveMapping: []
  m_AnimationClipSettings:
    serializedVersion: 2
    m_StartTime: 0
    m_StopTime: 6
    m_OrientationOffsetY: 0
    m_Level: 0
    m_CycleOffset: 0
    m_LoopTime: 1
    m_LoopBlend: 0
    m_LoopBlendOrientation: 0
    m_LoopBlendPositionY: 0
    m_LoopBlendPositionXZ: 0
    m_KeepOriginalOrientation: 0
    m_KeepOriginalPositionY: 1
    m_KeepOriginalPositionXZ: 0
    m_HeightFromFeet: 0
    m_Mirror: 0
  m_EditorCurves:
  - curve:
      serializedVersion: 2
      m_Curve:
      - time: 0
        value: 1.70521688
        inSlope: 0
        outSlope: 0
        tangentMode: 10
      - time: 6
        value: 1.70521688
        inSlope: 0
        outSlope: 0
        tangentMode: 10
      m_PreInfinity: 2
      m_PostInfinity: 2
    attribute: m_LocalPosition.x
    path: 
    classID: 4
    script: {fileID: 0}
  - curve:
      serializedVersion: 2
      m_Curve:
      - time: 0
        value: -1.15937567
        inSlope: 0
        outSlope: 0
        tangentMode: 10
      - time: 6
        value: -1.15937567
        inSlope: 0
        outSlope: 0
        tangentMode: 10
      m_PreInfinity: 2
      m_PostInfinity: 2
    attribute: m_LocalPosition.y
    path: 
    classID: 4
    script: {fileID: 0}
  - curve:
      serializedVersion: 2
      m_Curve:
      - time: 0
        value: .865882039
        inSlope: 0
        outSlope: 0
        tangentMode: 10
      - time: 6
        value: .865882039
        inSlope: 0
        outSlope: 0
        tangentMode: 10
      m_PreInfinity: 2
      m_PostInfinity: 2
    attribute: m_LocalPosition.z
    path: 
    classID: 4
    script: {fileID: 0}
  - curve:
      serializedVersion: 2
      m_Curve:
      - time: 0
        value: -0
        inSlope: -.523359597
        outSlope: -.523359597
        tangentMode: 0
      - time: .100000001
        value: -.0523359627
        inSlope: -.522642374
        outSlope: -.522642374
        tangentMode: 0
      - time: .200000003
        value: -.104528472
        inSlope: -.520492613
        outSlope: -.520492613
        tangentMode: 0
      - time: .300000012
        value: -.156434491
        inSlope: -.516916215
        outSlope: -.516916215
        tangentMode: 0
      - time: .400000006
        value: -.207911715
        inSlope: -.511922956
        outSlope: -.511922956
        tangentMode: 0
      - time: .5
        value: -.258819073
        inSlope: -.505526543
        outSlope: -.505526543
        tangentMode: 0
      - time: .600000024
        value: -.309017032
        inSlope: -.49774456
        outSlope: -.49774456
        tangentMode: 0
      - time: .700000048
        value: -.358368009
        inSlope: -.488598228
        outSlope: -.488598228
        tangentMode: 0
      - time: .800000072
        value: -.406736702
        inSlope: -.478112727
        outSlope: -.478112727
        tangentMode: 0
      - time: .900000095
        value: -.453990579
        inSlope: -.466316968
        outSlope: -.466316968
        tangentMode: 0
      - time: 1.00000012
        value: -.500000119
        inSlope: -.453242838
        outSlope: -.453242838
        tangentMode: 0
      - time: 1.10000014
        value: -.54463917
        inSlope: -.438926101
        outSlope: -.438926101
        tangentMode: 0
      - time: 1.20000017
        value: -.587785363
        inSlope: -.423406869
        outSlope: -.423406869
        tangentMode: 0
      - time: 1.30000019
        value: -.629320562
        inSlope: -.406726807
        outSlope: -.406726807
        tangentMode: 0
      - time: 1.40000021
        value: -.669130743
        inSlope: -.388931841
        outSlope: -.388931841
        tangentMode: 0
      - time: 1.50000024
        value: -.707106948
        inSlope: -.370071143
        outSlope: -.370071143
        tangentMode: 0
      - time: 1.60000026
        value: -.743144989
        inSlope: -.350195676
        outSlope: -.350195676
        tangentMode: 0
      - time: 1.70000029
        value: -.777146101
        inSlope: -.329360574
        outSlope: -.329360574
        tangentMode: 0
      - time: 1.80000031
        value: -.809017122
        inSlope: -.307623088
        outSlope: -.307623088
        tangentMode: 0
      - time: 1.90000033
        value: -.838670731
        inSlope: -.285042346
        outSlope: -.285042346
        tangentMode: 0
      - time: 2.00000024
        value: -.866025567
        inSlope: -.261679828
        outSlope: -.261679828
        tangentMode: 0
      - time: 2.10000014
        value: -.891006649
        inSlope: -.237600133
        outSlope: -.237600133
        tangentMode: 0
      - time: 2.20000005
        value: -.913545549
        inSlope: -.212869257
        outSlope: -.212869257
        tangentMode: 0
      - time: 2.29999995
        value: -.933580458
        inSlope: -.187555134
        outSlope: -.187555134
        tangentMode: 0
      - time: 2.39999986
        value: -.95105654
        inSlope: -.161726922
        outSlope: -.161726922
        tangentMode: 0
      - time: 2.49999976
        value: -.965925813
        inSlope: -.135455564
        outSlope: -.135455564
        tangentMode: 0
      - time: 2.59999967
        value: -.978147626
        inSlope: -.108812556
        outSlope: -.108812556
        tangentMode: 0
      - time: 2.69999957
        value: -.987688303
        inSlope: -.0818715245
        outSlope: -.0818715245
        tangentMode: 0
      - time: 2.79999948
        value: -.994521916
        inSlope: -.0547060892
        outSlope: -.0547060892
        tangentMode: 0
      - time: 2.89999938
        value: -.99862951
        inSlope: -.0273904465
        outSlope: -.0273904465
        tangentMode: 0
      - time: 2.99999928
        value: -1
        inSlope: -2.98023224e-07
        outSlope: -2.98023224e-07
        tangentMode: 0
      - time: 3.09999919
        value: -.99862957
        inSlope: .0273904465
        outSlope: .0273904465
        tangentMode: 0
      - time: 3.19999909
        value: -.994521916
        inSlope: .0547057912
        outSlope: .0547057912
        tangentMode: 0
      - time: 3.299999
        value: -.987688422
        inSlope: .0818712264
        outSlope: .0818712264
        tangentMode: 0
      - time: 3.3999989
        value: -.978147686
        inSlope: .108812556
        outSlope: .108812556
        tangentMode: 0
      - time: 3.49999881
        value: -.965925932
        inSlope: .135455266
        outSlope: .135455266
        tangentMode: 0
      - time: 3.59999871
        value: -.951056659
        inSlope: .161726922
        outSlope: .161726922
        tangentMode: 0
      - time: 3.69999862
        value: -.933580577
        inSlope: .187554836
        outSlope: .187554836
        tangentMode: 0
      - time: 3.79999852
        value: -.913545728
        inSlope: .212869257
        outSlope: .212869257
        tangentMode: 0
      - time: 3.89999843
        value: -.891006768
        inSlope: .237600133
        outSlope: .237600133
        tangentMode: 0
      - time: 3.99999833
        value: -.866025746
        inSlope: .26167953
        outSlope: .26167953
        tangentMode: 0
      - time: 4.09999847
        value: -.83867085
        inSlope: .285042167
        outSlope: .285042167
        tangentMode: 0
      - time: 4.19999838
        value: -.809017301
        inSlope: .30762285
        outSlope: .30762285
        tangentMode: 0
      - time: 4.29999828
        value: -.777146339
        inSlope: .32935977
        outSlope: .32935977
        tangentMode: 0
      - time: 4.39999819
        value: -.743145406
        inSlope: .350194931
        outSlope: .350194931
        tangentMode: 0
      - time: 4.49999809
        value: -.707107425
        inSlope: .37007159
        outSlope: .37007159
        tangentMode: 0
      - time: 4.599998
        value: -.66913116
        inSlope: .388932288
        outSlope: .388932288
        tangentMode: 0
      - time: 4.6999979
        value: -.629321039
        inSlope: .40672639
        outSlope: .40672639
        tangentMode: 0
      - time: 4.79999781
        value: -.587785959
        inSlope: .423407376
        outSlope: .423407376
        tangentMode: 0
      - time: 4.89999771
        value: -.544639647
        inSlope: .438925743
        outSlope: .438925743
        tangentMode: 0
      - time: 4.99999762
        value: -.500000894
        inSlope: .453241467
        outSlope: .453241467
        tangentMode: 0
      - time: 5.09999752
        value: -.453991443
        inSlope: .46631664
        outSlope: .46631664
        tangentMode: 0
      - time: 5.19999743
        value: -.406737655
        inSlope: .4781124
        outSlope: .4781124
        tangentMode: 0
      - time: 5.29999733
        value: -.358369052
        inSlope: .488599122
        outSlope: .488599122
        tangentMode: 0
      - time: 5.39999723
        value: -.309017926
        inSlope: .497744262
        outSlope: .497744262
        tangentMode: 0
      - time: 5.49999714
        value: -.258820295
        inSlope: .505525053
        outSlope: .505525053
        tangentMode: 0
      - time: 5.59999704
        value: -.207913011
        inSlope: .511922657
        outSlope: .511922657
        tangentMode: 0
      - time: 5.69999695
        value: -.156435862
        inSlope: .516917109
        outSlope: .516917109
        tangentMode: 0
      - time: 5.79999685
        value: -.104529686
        inSlope: .520493627
        outSlope: .520493627
        tangentMode: 0
      - time: 5.89999676
        value: -.0523372404
        inSlope: .522641838
        outSlope: .522641838
        tangentMode: 0
      - time: 6
        value: 3.2584137e-07
        inSlope: .523358703
        outSlope: .523358703
        tangentMode: 0
      m_PreInfinity: 2
      m_PostInfinity: 2
    attribute: m_LocalRotation.x
    path: 
    classID: 4
    script: {fileID: 0}
  - curve:
      serializedVersion: 2
      m_Curve:
      - time: 0
        value: -0
        inSlope: 0
        outSlope: 0
        tangentMode: 0
      - time: .100000001
        value: -0
        inSlope: 0
        outSlope: 0
        tangentMode: 0
      - time: .200000003
        value: -0
        inSlope: 0
        outSlope: 0
        tangentMode: 0
      - time: .300000012
        value: -0
        inSlope: 0
        outSlope: 0
        tangentMode: 0
      - time: .400000006
        value: -0
        inSlope: 0
        outSlope: 0
        tangentMode: 0
      - time: .5
        value: -0
        inSlope: 0
        outSlope: 0
        tangentMode: 0
      - time: .600000024
        value: -0
        inSlope: 0
        outSlope: 0
        tangentMode: 0
      - time: .700000048
        value: -0
        inSlope: 0
        outSlope: 0
        tangentMode: 0
      - time: .800000072
        value: -0
        inSlope: 0
        outSlope: 0
        tangentMode: 0
      - time: .900000095
        value: -0
        inSlope: 0
        outSlope: 0
        tangentMode: 0
      - time: 1.00000012
        value: -0
        inSlope: 0
        outSlope: 0
        tangentMode: 0
      - time: 1.10000014
        value: -0
        inSlope: 0
        outSlope: 0
        tangentMode: 0
      - time: 1.20000017
        value: -0
        inSlope: 0
        outSlope: 0
        tangentMode: 0
      - time: 1.30000019
        value: -0
        inSlope: 0
        outSlope: 0
        tangentMode: 0
      - time: 1.40000021
        value: -0
        inSlope: 0
        outSlope: 0
        tangentMode: 0
      - time: 1.50000024
        value: -0
        inSlope: 0
        outSlope: 0
        tangentMode: 0
      - time: 1.60000026
        value: -0
        inSlope: 0
        outSlope: 0
        tangentMode: 0
      - time: 1.70000029
        value: -0
        inSlope: 0
        outSlope: 0
        tangentMode: 0
      - time: 1.80000031
        value: -0
        inSlope: 0
        outSlope: 0
        tangentMode: 0
      - time: 1.90000033
        value: -0
        inSlope: 0
        outSlope: 0
        tangentMode: 0
      - time: 2.00000024
        value: -0
        inSlope: 0
        outSlope: 0
        tangentMode: 0
      - time: 2.10000014
        value: -0
        inSlope: 0
        outSlope: 0
        tangentMode: 0
      - time: 2.20000005
        value: -0
        inSlope: 0
        outSlope: 0
        tangentMode: 0
      - time: 2.29999995
        value: -0
        inSlope: 0
        outSlope: 0
        tangentMode: 0
      - time: 2.39999986
        value: -0
        inSlope: 0
        outSlope: 0
        tangentMode: 0
      - time: 2.49999976
        value: -0
        inSlope: 0
        outSlope: 0
        tangentMode: 0
      - time: 2.59999967
        value: -0
        inSlope: 0
        outSlope: 0
        tangentMode: 0
      - time: 2.69999957
        value: -0
        inSlope: 0
        outSlope: 0
        tangentMode: 0
      - time: 2.79999948
        value: -0
        inSlope: 0
        outSlope: 0
        tangentMode: 0
      - time: 2.89999938
        value: -0
        inSlope: 0
        outSlope: 0
        tangentMode: 0
      - time: 2.99999928
        value: -0
        inSlope: 0
        outSlope: 0
        tangentMode: 0
      - time: 3.09999919
        value: -0
        inSlope: 0
        outSlope: 0
        tangentMode: 0
      - time: 3.19999909
        value: -0
        inSlope: 0
        outSlope: 0
        tangentMode: 0
      - time: 3.299999
        value: -0
        inSlope: 0
        outSlope: 0
        tangentMode: 0
      - time: 3.3999989
        value: -0
        inSlope: 0
        outSlope: 0
        tangentMode: 0
      - time: 3.49999881
        value: -0
        inSlope: 0
        outSlope: 0
        tangentMode: 0
      - time: 3.59999871
        value: -0
        inSlope: 0
        outSlope: 0
        tangentMode: 0
      - time: 3.69999862
        value: -0
        inSlope: 0
        outSlope: 0
        tangentMode: 0
      - time: 3.79999852
        value: -0
        inSlope: 0
        outSlope: 0
        tangentMode: 0
      - time: 3.89999843
        value: -0
        inSlope: 0
        outSlope: 0
        tangentMode: 0
      - time: 3.99999833
        value: -0
        inSlope: 0
        outSlope: 0
        tangentMode: 0
      - time: 4.09999847
        value: -0
        inSlope: 0
        outSlope: 0
        tangentMode: 0
      - time: 4.19999838
        value: -0
        inSlope: 0
        outSlope: 0
        tangentMode: 0
      - time: 4.29999828
        value: -0
        inSlope: 0
        outSlope: 0
        tangentMode: 0
      - time: 4.39999819
        value: -0
        inSlope: 0
        outSlope: 0
        tangentMode: 0
      - time: 4.49999809
        value: -0
        inSlope: 0
        outSlope: 0
        tangentMode: 0
      - time: 4.599998
        value: -0
        inSlope: 0
        outSlope: 0
        tangentMode: 0
      - time: 4.6999979
        value: -0
        inSlope: 0
        outSlope: 0
        tangentMode: 0
      - time: 4.79999781
        value: -0
        inSlope: 0
        outSlope: 0
        tangentMode: 0
      - time: 4.89999771
        value: -0
        inSlope: 0
        outSlope: 0
        tangentMode: 0
      - time: 4.99999762
        value: -0
        inSlope: 0
        outSlope: 0
        tangentMode: 0
      - time: 5.09999752
        value: -0
        inSlope: 0
        outSlope: 0
        tangentMode: 0
      - time: 5.19999743
        value: -0
        inSlope: 0
        outSlope: 0
        tangentMode: 0
      - time: 5.29999733
        value: -0
        inSlope: 0
        outSlope: 0
        tangentMode: 0
      - time: 5.39999723
        value: -0
        inSlope: 0
        outSlope: 0
        tangentMode: 0
      - time: 5.49999714
        value: -0
        inSlope: 0
        outSlope: 0
        tangentMode: 0
      - time: 5.59999704
        value: -0
        inSlope: 0
        outSlope: 0
        tangentMode: 0
      - time: 5.69999695
        value: -0
        inSlope: 0
        outSlope: 0
        tangentMode: 0
      - time: 5.79999685
        value: -0
        inSlope: 0
        outSlope: 0
        tangentMode: 0
      - time: 5.89999676
        value: -0
        inSlope: 0
        outSlope: 0
        tangentMode: 0
      - time: 6
        value: -0
        inSlope: 0
        outSlope: 0
        tangentMode: 0
      m_PreInfinity: 2
      m_PostInfinity: 2
    attribute: m_LocalRotation.y
    path: 
    classID: 4
    script: {fileID: 0}
  - curve:
      serializedVersion: 2
      m_Curve:
      - time: 0
        value: -0
        inSlope: 0
        outSlope: 0
        tangentMode: 0
      - time: .100000001
        value: -0
        inSlope: 0
        outSlope: 0
        tangentMode: 0
      - time: .200000003
        value: -0
        inSlope: 0
        outSlope: 0
        tangentMode: 0
      - time: .300000012
        value: -0
        inSlope: 0
        outSlope: 0
        tangentMode: 0
      - time: .400000006
        value: -0
        inSlope: 0
        outSlope: 0
        tangentMode: 0
      - time: .5
        value: -0
        inSlope: 0
        outSlope: 0
        tangentMode: 0
      - time: .600000024
        value: -0
        inSlope: 0
        outSlope: 0
        tangentMode: 0
      - time: .700000048
        value: -0
        inSlope: 0
        outSlope: 0
        tangentMode: 0
      - time: .800000072
        value: -0
        inSlope: 0
        outSlope: 0
        tangentMode: 0
      - time: .900000095
        value: -0
        inSlope: 0
        outSlope: 0
        tangentMode: 0
      - time: 1.00000012
        value: -0
        inSlope: 0
        outSlope: 0
        tangentMode: 0
      - time: 1.10000014
        value: -0
        inSlope: 0
        outSlope: 0
        tangentMode: 0
      - time: 1.20000017
        value: -0
        inSlope: 0
        outSlope: 0
        tangentMode: 0
      - time: 1.30000019
        value: -0
        inSlope: 0
        outSlope: 0
        tangentMode: 0
      - time: 1.40000021
        value: -0
        inSlope: 0
        outSlope: 0
        tangentMode: 0
      - time: 1.50000024
        value: -0
        inSlope: 0
        outSlope: 0
        tangentMode: 0
      - time: 1.60000026
        value: -0
        inSlope: 0
        outSlope: 0
        tangentMode: 0
      - time: 1.70000029
        value: -0
        inSlope: 0
        outSlope: 0
        tangentMode: 0
      - time: 1.80000031
        value: -0
        inSlope: 0
        outSlope: 0
        tangentMode: 0
      - time: 1.90000033
        value: -0
        inSlope: 0
        outSlope: 0
        tangentMode: 0
      - time: 2.00000024
        value: -0
        inSlope: 0
        outSlope: 0
        tangentMode: 0
      - time: 2.10000014
        value: -0
        inSlope: 0
        outSlope: 0
        tangentMode: 0
      - time: 2.20000005
        value: -0
        inSlope: 0
        outSlope: 0
        tangentMode: 0
      - time: 2.29999995
        value: -0
        inSlope: 0
        outSlope: 0
        tangentMode: 0
      - time: 2.39999986
        value: -0
        inSlope: 0
        outSlope: 0
        tangentMode: 0
      - time: 2.49999976
        value: -0
        inSlope: 0
        outSlope: 0
        tangentMode: 0
      - time: 2.59999967
        value: -0
        inSlope: 0
        outSlope: 0
        tangentMode: 0
      - time: 2.69999957
        value: -0
        inSlope: 0
        outSlope: 0
        tangentMode: 0
      - time: 2.79999948
        value: -0
        inSlope: 0
        outSlope: 0
        tangentMode: 0
      - time: 2.89999938
        value: -0
        inSlope: 0
        outSlope: 0
        tangentMode: 0
      - time: 2.99999928
        value: -0
        inSlope: 0
        outSlope: 0
        tangentMode: 0
      - time: 3.09999919
        value: -0
        inSlope: 0
        outSlope: 0
        tangentMode: 0
      - time: 3.19999909
        value: -0
        inSlope: 0
        outSlope: 0
        tangentMode: 0
      - time: 3.299999
        value: -0
        inSlope: 0
        outSlope: 0
        tangentMode: 0
      - time: 3.3999989
        value: -0
        inSlope: 0
        outSlope: 0
        tangentMode: 0
      - time: 3.49999881
        value: -0
        inSlope: 0
        outSlope: 0
        tangentMode: 0
      - time: 3.59999871
        value: -0
        inSlope: 0
        outSlope: 0
        tangentMode: 0
      - time: 3.69999862
        value: -0
        inSlope: 0
        outSlope: 0
        tangentMode: 0
      - time: 3.79999852
        value: -0
        inSlope: 0
        outSlope: 0
        tangentMode: 0
      - time: 3.89999843
        value: -0
        inSlope: 0
        outSlope: 0
        tangentMode: 0
      - time: 3.99999833
        value: -0
        inSlope: 0
        outSlope: 0
        tangentMode: 0
      - time: 4.09999847
        value: -0
        inSlope: 0
        outSlope: 0
        tangentMode: 0
      - time: 4.19999838
        value: -0
        inSlope: 0
        outSlope: 0
        tangentMode: 0
      - time: 4.29999828
        value: -0
        inSlope: 0
        outSlope: 0
        tangentMode: 0
      - time: 4.39999819
        value: -0
        inSlope: 0
        outSlope: 0
        tangentMode: 0
      - time: 4.49999809
        value: -0
        inSlope: 0
        outSlope: 0
        tangentMode: 0
      - time: 4.599998
        value: -0
        inSlope: 0
        outSlope: 0
        tangentMode: 0
      - time: 4.6999979
        value: -0
        inSlope: 0
        outSlope: 0
        tangentMode: 0
      - time: 4.79999781
        value: -0
        inSlope: 0
        outSlope: 0
        tangentMode: 0
      - time: 4.89999771
        value: -0
        inSlope: 0
        outSlope: 0
        tangentMode: 0
      - time: 4.99999762
        value: -0
        inSlope: 0
        outSlope: 0
        tangentMode: 0
      - time: 5.09999752
        value: -0
        inSlope: 0
        outSlope: 0
        tangentMode: 0
      - time: 5.19999743
        value: -0
        inSlope: 0
        outSlope: 0
        tangentMode: 0
      - time: 5.29999733
        value: -0
        inSlope: 0
        outSlope: 0
        tangentMode: 0
      - time: 5.39999723
        value: -0
        inSlope: 0
        outSlope: 0
        tangentMode: 0
      - time: 5.49999714
        value: -0
        inSlope: 0
        outSlope: 0
        tangentMode: 0
      - time: 5.59999704
        value: -0
        inSlope: 0
        outSlope: 0
        tangentMode: 0
      - time: 5.69999695
        value: -0
        inSlope: 0
        outSlope: 0
        tangentMode: 0
      - time: 5.79999685
        value: -0
        inSlope: 0
        outSlope: 0
        tangentMode: 0
      - time: 5.89999676
        value: -0
        inSlope: 0
        outSlope: 0
        tangentMode: 0
      - time: 6
        value: -0
        inSlope: 0
        outSlope: 0
        tangentMode: 0
      m_PreInfinity: 2
      m_PostInfinity: 2
    attribute: m_LocalRotation.z
    path: 
    classID: 4
    script: {fileID: 0}
  - curve:
      serializedVersion: 2
      m_Curve:
      - time: 0
        value: -1
        inSlope: .013704896
        outSlope: .013704896
        tangentMode: 0
      - time: .100000001
        value: -.99862951
        inSlope: .0273904204
        outSlope: .0273904204
        tangentMode: 0
      - time: .200000003
        value: -.994521916
        inSlope: .0547057353
        outSlope: .0547057353
        tangentMode: 0
      - time: .300000012
        value: -.987688363
        inSlope: .0818714499
        outSlope: .0818714499
        tangentMode: 0
      - time: .400000006
        value: -.978147626
        inSlope: .108812757
        outSlope: .108812757
        tangentMode: 0
      - time: .5
        value: -.965925813
        inSlope: .135455713
        outSlope: .135455713
        tangentMode: 0
      - time: .600000024
        value: -.95105648
        inSlope: .161727041
        outSlope: .161727041
        tangentMode: 0
      - time: .700000048
        value: -.933580399
        inSlope: .187555209
        outSlope: .187555209
        tangentMode: 0
      - time: .800000072
        value: -.91354543
        inSlope: .212869585
        outSlope: .212869585
        tangentMode: 0
      - time: .900000095
        value: -.89100647
        inSlope: .237600446
        outSlope: .237600446
        tangentMode: 0
      - time: 1.00000012
        value: -.866025329
        inSlope: .261679828
        outSlope: .261679828
        tangentMode: 0
      - time: 1.10000014
        value: -.838670492
        inSlope: .285041869
        outSlope: .285041869
        tangentMode: 0
      - time: 1.20000017
        value: -.809016943
        inSlope: .307623088
        outSlope: .307623088
        tangentMode: 0
      - time: 1.30000019
        value: -.777145863
        inSlope: .329361171
        outSlope: .329361171
        tangentMode: 0
      - time: 1.40000021
        value: -.743144691
        inSlope: .350195974
        outSlope: .350195974
        tangentMode: 0
      - time: 1.50000024
        value: -.70710665
        inSlope: .370071143
        outSlope: .370071143
        tangentMode: 0
      - time: 1.60000026
        value: -.669130445
        inSlope: .388932139
        outSlope: .388932139
        tangentMode: 0
      - time: 1.70000029
        value: -.629320204
        inSlope: .406726807
        outSlope: .406726807
        tangentMode: 0
      - time: 1.80000031
        value: -.587785065
        inSlope: .423407167
        outSlope: .423407167
        tangentMode: 0
      - time: 1.90000033
        value: -.544638753
        inSlope: .438926697
        outSlope: .438926697
        tangentMode: 0
      - time: 2.00000024
        value: -.499999762
        inSlope: .45324266
        outSlope: .45324266
        tangentMode: 0
      - time: 2.10000014
        value: -.45399031
        inSlope: .466316789
        outSlope: .466316789
        tangentMode: 0
      - time: 2.20000005
        value: -.406736493
        inSlope: .478112698
        outSlope: .478112698
        tangentMode: 0
      - time: 2.29999995
        value: -.35836786
        inSlope: .488598049
        outSlope: .488598049
        tangentMode: 0
      - time: 2.39999986
        value: -.309016973
        inSlope: .497744411
        outSlope: .497744411
        tangentMode: 0
      - time: 2.49999976
        value: -.258819073
        inSlope: .505527079
        outSlope: .505527079
        tangentMode: 0
      - time: 2.59999967
        value: -.207911655
        inSlope: .511922896
        outSlope: .511922896
        tangentMode: 0
      - time: 2.69999957
        value: -.156434596
        inSlope: .516916096
        outSlope: .516916096
        tangentMode: 0
      - time: 2.79999948
        value: -.104528539
        inSlope: .520493031
        outSlope: .520493031
        tangentMode: 0
      - time: 2.89999938
        value: -.052336093
        inSlope: .522642255
        outSlope: .522642255
        tangentMode: 0
      - time: 2.99999928
        value: -1.94707184e-07
        inSlope: .523359478
        outSlope: .523359478
        tangentMode: 0
      - time: 3.09999919
        value: .0523357019
        inSlope: .522642255
        outSlope: .522642255
        tangentMode: 0
      - time: 3.19999909
        value: .104528151
        inSlope: .520492494
        outSlope: .520492494
        tangentMode: 0
      - time: 3.299999
        value: .156434104
        inSlope: .516916633
        outSlope: .516916633
        tangentMode: 0
      - time: 3.3999989
        value: .207911387
        inSlope: .511922836
        outSlope: .511922836
        tangentMode: 0
      - time: 3.49999881
        value: .258818567
        inSlope: .505526483
        outSlope: .505526483
        tangentMode: 0
      - time: 3.59999871
        value: .309016585
        inSlope: .497745156
        outSlope: .497745156
        tangentMode: 0
      - time: 3.69999862
        value: .358367503
        inSlope: .488597751
        outSlope: .488597751
        tangentMode: 0
      - time: 3.79999852
        value: .406736046
        inSlope: .478112698
        outSlope: .478112698
        tangentMode: 0
      - time: 3.89999843
        value: .453989953
        inSlope: .466317385
        outSlope: .466317385
        tangentMode: 0
      - time: 3.99999833
        value: .499999434
        inSlope: .453243315
        outSlope: .453243315
        tangentMode: 0
      - time: 4.09999847
        value: .544638634
        inSlope: .438926876
        outSlope: .438926876
        tangentMode: 0
      - time: 4.19999838
        value: .587784827
        inSlope: .42340678
        outSlope: .42340678
        tangentMode: 0
      - time: 4.29999828
        value: .629319906
        inSlope: .406726092
        outSlope: .406726092
        tangentMode: 0
      - time: 4.39999819
        value: .669129968
        inSlope: .388931394
        outSlope: .388931394
        tangentMode: 0
      - time: 4.49999809
        value: .707106113
        inSlope: .370072186
        outSlope: .370072186
        tangentMode: 0
      - time: 4.599998
        value: .743144333
        inSlope: .350197017
        outSlope: .350197017
        tangentMode: 0
      - time: 4.6999979
        value: .777145445
        inSlope: .329360962
        outSlope: .329360962
        tangentMode: 0
      - time: 4.79999781
        value: .809016466
        inSlope: .307624042
        outSlope: .307624042
        tangentMode: 0
      - time: 4.89999771
        value: .838670194
        inSlope: .285042495
        outSlope: .285042495
        tangentMode: 0
      - time: 4.99999762
        value: .866024911
        inSlope: .26167953
        outSlope: .26167953
        tangentMode: 0
      - time: 5.09999752
        value: .891006052
        inSlope: .237600729
        outSlope: .237600729
        tangentMode: 0
      - time: 5.19999743
        value: .913545012
        inSlope: .212869853
        outSlope: .212869853
        tangentMode: 0
      - time: 5.29999733
        value: .933579981
        inSlope: .187556028
        outSlope: .187556028
        tangentMode: 0
      - time: 5.39999723
        value: .951056182
        inSlope: .161727816
        outSlope: .161727816
        tangentMode: 0
      - time: 5.49999714
        value: .965925515
        inSlope: .135455862
        outSlope: .135455862
        tangentMode: 0
      - time: 5.59999704
        value: .978147328
        inSlope: .108813152
        outSlope: .108813152
        tangentMode: 0
      - time: 5.69999695
        value: .987688124
        inSlope: .0818724185
        outSlope: .0818724185
        tangentMode: 0
      - time: 5.79999685
        value: .994521797
        inSlope: .0547066852
        outSlope: .0547066852
        tangentMode: 0
      - time: 5.89999676
        value: .998629451
        inSlope: .0273908153
        outSlope: .0273908153
        tangentMode: 0
      - time: 6
        value: 1
        inSlope: .0137050478
        outSlope: .0137050478
        tangentMode: 0
      m_PreInfinity: 2
      m_PostInfinity: 2
    attribute: m_LocalRotation.w
    path: 
    classID: 4
    script: {fileID: 0}
  m_EulerEditorCurves:
  - curve:
      serializedVersion: 2
      m_Curve:
      - time: 0
        value: 0
        inSlope: 60
        outSlope: 60
        tangentMode: 10
      - time: 6
        value: 360
        inSlope: 60
        outSlope: 60
        tangentMode: 10
      m_PreInfinity: 2
      m_PostInfinity: 2
    attribute: localEulerAnglesBaked.x
    path: 
    classID: 4
    script: {fileID: 0}
  - curve:
      serializedVersion: 2
      m_Curve:
      - time: 0
        value: 0
        inSlope: 0
        outSlope: 0
        tangentMode: 10
      - time: 6
        value: 0
        inSlope: 0
        outSlope: 0
        tangentMode: 10
      m_PreInfinity: 2
      m_PostInfinity: 2
    attribute: localEulerAnglesBaked.y
    path: 
    classID: 4
    script: {fileID: 0}
  - curve:
      serializedVersion: 2
      m_Curve:
      - time: 0
        value: 0
        inSlope: 0
        outSlope: 0
        tangentMode: 10
      - time: 6
        value: 0
        inSlope: 0
        outSlope: 0
        tangentMode: 10
      m_PreInfinity: 2
      m_PostInfinity: 2
    attribute: localEulerAnglesBaked.z
    path: 
    classID: 4
    script: {fileID: 0}
  m_HasGenericRootTransform: 1
  m_HasMotionFloatCurves: 0
  m_GenerateMotionCurves: 0
  m_Events: []
