%YAML 1.1
%TAG !u! tag:unity3d.com,2011:
--- !u!74 &7400000
AnimationClip:
  m_ObjectHideFlags: 0
  m_PrefabParentObject: {fileID: 0}
  m_PrefabInternal: {fileID: 0}
  m_Name: FighterSpecialActive
  serializedVersion: 6
  m_Legacy: 0
  m_Compressed: 0
  m_UseHighQualityCurve: 1
  m_RotationCurves: []
  m_CompressedRotationCurves: []
  m_PositionCurves: []
  m_ScaleCurves: []
  m_FloatCurves:
  - curve:
      serializedVersion: 2
      m_Curve:
      - time: 0
        value: 0
        inSlope: 179.762115
        outSlope: 179.762115
        tangentMode: 10
      - time: .200000003
        value: 35.9524231
        inSlope: 691.705811
        outSlope: 691.705811
        tangentMode: 10
      - time: .25
        value: 96.1348953
        inSlope: 640.47583
        outSlope: 640.47583
        tangentMode: 10
      - time: .300000012
        value: 100
        inSlope: 77.3020782
        outSlope: 77.3020782
        tangentMode: 10
      m_PreInfinity: 2
      m_PostInfinity: 2
    attribute: blendShape.blendShape1.polySurface97
    path: 
    classID: 137
    script: {fileID: 0}
  m_PPtrCurves: []
  m_SampleRate: 200
  m_WrapMode: 0
  m_Bounds:
    m_Center: {x: 0, y: 0, z: 0}
    m_Extent: {x: 0, y: 0, z: 0}
  m_ClipBindingConstant:
    genericBindings:
    - path: 0
      attribute: 4265942894
      script: {fileID: 0}
      classID: 137
      customType: 20
      isPPtrCurve: 0
    pptrCurveMapping: []
  m_AnimationClipSettings:
    serializedVersion: 2
    m_StartTime: 0
    m_StopTime: .300000012
    m_OrientationOffsetY: 0
    m_Level: 0
    m_CycleOffset: 0
    m_LoopTime: 0
    m_LoopBlend: 0
    m_LoopBlendOrientation: 0
    m_LoopBlendPositionY: 0
    m_LoopBlendPositionXZ: 0
    m_KeepOriginalOrientation: 0
    m_KeepOriginalPositionY: 1
    m_KeepOriginalPositionXZ: 0
    m_HeightFromFeet: 0
    m_Mirror: 0
  m_EditorCurves:
  - curve:
      serializedVersion: 2
      m_Curve:
      - time: 0
        value: 0
        inSlope: 179.762115
        outSlope: 179.762115
        tangentMode: 10
      - time: .200000003
        value: 35.9524231
        inSlope: 691.705811
        outSlope: 691.705811
        tangentMode: 10
      - time: .25
        value: 96.1348953
        inSlope: 640.47583
        outSlope: 640.47583
        tangentMode: 10
      - time: .300000012
        value: 100
        inSlope: 77.3020782
        outSlope: 77.3020782
        tangentMode: 10
      m_PreInfinity: 2
      m_PostInfinity: 2
    attribute: blendShape.blendShape1.polySurface97
    path: 
    classID: 137
    script: {fileID: 0}
  m_EulerEditorCurves: []
  m_HasGenericRootTransform: 0
  m_HasMotionFloatCurves: 0
  m_GenerateMotionCurves: 0
  m_Events: []
